{
    "type": "dig",

    "id"  : "oillevel_in_oilbox",
    "channel_id": 26,

    "icon_name": "image82.svg",
 
    "name":
    {
        "en":"Alert oil level in oilbox",
        "ru":"Аварийный уровень масла в маслобаке"
    },

    "alert":
    {
        "display_top": true,
        "display_msg": true,
        "sound":"oillevel_in_oilbox",
        "color":"red",
        "text":
        {
            "en":"Alert oil level in oilbox",
            "ru":"Аварийный уровень масла в маслобаке"
        }
    },

    "manual":
    {
        "title":
		{
            "en":"Alert oil level in oilbox",
            "ru":"Аварийный уровень масла в маслобаке"
		},

		"description":
		{
			"en": " Oil level in the oilbox is below the acceptable. If the oil level is normal, it is necessary to:\n a) make sure that the sensor SL2 is correct;\n b) test for the circuit earth fault 341-K.",
			"ru": " Уровень масла в маслобаке ниже допустимого. Если уровень масла приемлемый, то необходимо:\n a) убедиться в исправности датчика SL2;\n b) проверить отсутствие замыкания на массу цепи 341-К."
		}
    },
    
    "can_data":
    {
        "response_id": 1028,
        "bit": 26
    }
    
}
