{
    "type": "dig",

    "id"  : "oilpressure_engine",
    "channel_id": 28,

    "icon_name": "image89.svg",
 
    "name":
    {
        "en":"Alert oil pressure in engine",
        "ru":"Аварийное давление масла в двигателе"
    },

    "alert":
    {
        "display_top": true,
        "display_msg": true,
        "sound":"oilpressure_engine",
        "color":"red",
        "text":
        {
            "en":"Alert oil pressure in engine",
            "ru":"Аварийное давление масла в двигателе"
        }
    },

    "manual":
    {
        "title":
		{
            "en":"Alert oil pressure in engine",
            "ru":"Аварийное давление масла в двигателе"
		},

		"description":
		{
			"en": "Engine oil pressure is above or below the acceptable (standard - from 0,3 to 0,7 MPa).\n If oil pressure is normal, it is necessary to:\n  a) make sure that the sensor SP1 is correct;\n b) test for the circuit earth fault 36-Z.",
			"ru": "Давление масла в двигателе выше или ниже допустимого (норма - от 0.3 до 0.7 МПа).\n Если давление масла в норме, то необходимо:\n а) убедиться в исправности датчика SP1;\n б) проверить отсутствие замыкания на массу цепи 36-З."
		}
    },
    
    "can_data":
    {  
        "response_id": 1028,
        "bit": 28
    },
    
    "can_data_2":
    {
        "response_id": 1028,
        "bit": 60
    },

    "can_data_and": true
    
}
