{
    "type": "dig",

    "id"  : "hand_brake",
    "channel_id": 31,

    "icon_name": "image78.svg",
    "control_set_enabled": false,

    "name":
    {
        "en":"Hand brake switching on",
        "ru":"Включение стояночного тормоза"
    },
 
    "alert":
    {
        "display_top": false,
		"display_msg": false,
        "sound":"hand_brake",
        "color":"yellow",
        "text":
        {
            "en":"Hand brake switching on",
            "ru":"Включение стояночного тормоза"
        }
    },
    
    "can_data":
    {  
        "response_id": 1028,
        "bit": 31
    }
    
}
