{
    "type": "other",
    "id"  : "emergency_engine_airflow_temp",
    "channel_id": 25,
 
    "icon_name": "airflowtemp.png",
 
    "name":{
        "en":"Engine charge air temperature",
        "ru":"Температура наддувочного воздуха в двигателе"
    },

    "alert":
    {
        "display_top": true,
        "display_msg": true,
        "sound":"",
        "color":"red",
        "text":
        {
            "en":"Emergency engine charge air temperature",
            "ru":"Аварийная температура наддувочного воздуха в двигателе"
        }
    },

    "manual":
    {
        "title":
		{
            "en":"Emergency engine charge air temperature",
            "ru":"Аварийная температура наддувочного воздуха в двигателе"
		},

		"description":
		{
            "en": "",
		    "ru": ""
		}
    },
    "can_data":
    {
        "response_id": 1027,
        "bit": 25
    }
}
