{
    "type": "out",

    "id"  : "gap_increase_shoe_sieve",
    "channel_id": 7,

    "icon_name": "image113.svg",
 
    "name":{
        "en":"Gap increase of shoe sieve position",
        "ru":"Увеличение зазора положения нижних решет"
    },

    "alert":
    {
        "display_top": false,
        "display_msg": true,
        "sound":"gap_increase_shoe_sieve",
        "color":"yellow",
        "text":
        {
            "en":"Breakage of shoe sieve gap increase drive circuits",
            "ru":"Обрыв цепей управления увеличением зазора положения нижних решет"
        }
    },

    "manual":
    {
        "title":
		{
            "en":"Breakage of shoe sieve gap increase drive circuits",
            "ru":"Обрыв цепей управления увеличением зазора положения нижних решет"
		},

		"description":
		{
            "en": "Test for the earth fault or open-circuit of control.\n Make sure that the actuating mechanism is correct.\n  Make sure that the relays through which supply voltage is carried out to the actuating electric mechanism is correct..",
			"ru": "Проверить отсутствие замыкания на массу или обрыва цепей управления.\n Убедиться в исправности исполнительного электромеханизма.\n  Убедиться в исправности реле, посредством которых происходит подача напряжения на исполнительный электромеханизм."
		}
    },
    "can_data":
    {
        "request_id": 112,
        "response_id": 1136,
        "bit": 7
    }
}
