{
    "type": "rpm",

    "id"  : "speed_motion_sensor",
    "channel_id": 2,

    "icon_name": "image101.svg",
 
    "name":{
        "en":"Speed of motion sensor",
        "ru":"Датчик скорости движения"
    },

    "alert":
    {
        "display_top": false,
        "display_msg": true,
        "sound":"speed_motion_sensor",
        "color":"yellow",
        "text":
        {
            "en":"Speed of motion sensor is wrong",
            "ru":"Неисправен датчик скорости движения"
        }
    },

    "manual":
    {
        "title":
		{
            "en":"Speed of motion sensor is wrong",
            "ru":"Неисправен датчик скорости движения"
		},

		"description":
		{
            "en": "Make sure that the sensor BR2 is correct (sensor resistance should be in the range from 900 to 1350 ohms).\nTest for the earth fault or open-circuit 203-C",
			"ru": "Убедиться в исправности датчика BR2 (сопротивление датчика должно находиться в пределах от 900 до 1350 Ом).\n Проверить отсутствие замыкания на массу или обрыва цепи 203-С."
		}
    },
    "can_data":
    {
        "request_id": 4,
        "response_id": 1028,
        "bit": 33
    }
}
