<?xml version="1.0" encoding="UTF-8" standalone="no"?>
<!-- Created with Inkscape (http://www.inkscape.org/) -->

<svg
   xmlns:dc="http://purl.org/dc/elements/1.1/"
   xmlns:cc="http://creativecommons.org/ns#"
   xmlns:rdf="http://www.w3.org/1999/02/22-rdf-syntax-ns#"
   xmlns:svg="http://www.w3.org/2000/svg"
   xmlns="http://www.w3.org/2000/svg"
   xmlns:sodipodi="http://sodipodi.sourceforge.net/DTD/sodipodi-0.dtd"
   xmlns:inkscape="http://www.inkscape.org/namespaces/inkscape"
   width="625"
   height="625"
   viewBox="0 0 165.36458 165.36459"
   version="1.1"
   id="svg5052"
   inkscape:version="0.92.1 r15371"
   sodipodi:docname="книга.svg">
  <defs
     id="defs5046">
    <inkscape:path-effect
       effect="skeletal"
       id="path-effect5318"
       is_visible="true"
       pattern="M 0,0 H 1"
       copytype="single_stretched"
       prop_scale="1.01"
       scale_y_rel="false"
       spacing="0.1"
       normal_offset="0"
       tang_offset="0"
       prop_units="false"
       vertical_pattern="false"
       fuse_tolerance="0" />
    <inkscape:path-effect
       effect="skeletal"
       id="path-effect5293"
       is_visible="true"
       pattern="M 0,0 H 1"
       copytype="single_stretched"
       prop_scale="1"
       scale_y_rel="false"
       spacing="0"
       normal_offset="0"
       tang_offset="0"
       prop_units="false"
       vertical_pattern="false"
       fuse_tolerance="0" />
    <inkscape:path-effect
       effect="skeletal"
       id="path-effect5281"
       is_visible="true"
       pattern="M 0,0 H 1"
       copytype="single_stretched"
       prop_scale="1"
       scale_y_rel="false"
       spacing="0"
       normal_offset="0"
       tang_offset="0"
       prop_units="false"
       vertical_pattern="false"
       fuse_tolerance="0" />
  </defs>
  <sodipodi:namedview
     id="base"
     pagecolor="#ffffff"
     bordercolor="#666666"
     borderopacity="1.0"
     inkscape:pageopacity="0.0"
     inkscape:pageshadow="2"
     inkscape:zoom="0.7"
     inkscape:cx="75.259817"
     inkscape:cy="343.52737"
     inkscape:document-units="px"
     inkscape:current-layer="layer1"
     showgrid="false"
     units="px"
     inkscape:snap-to-guides="true"
     inkscape:snap-grids="false"
     inkscape:snap-others="false"
     inkscape:object-nodes="false"
     inkscape:snap-nodes="false"
     inkscape:snap-global="true"
     inkscape:window-width="1366"
     inkscape:window-height="705"
     inkscape:window-x="-8"
     inkscape:window-y="-8"
     inkscape:window-maximized="1"
     inkscape:snap-bbox="true"
     showguides="true"
     inkscape:guide-bbox="true"
     inkscape:snap-bbox-midpoints="true"
     inkscape:bbox-paths="true"
     inkscape:pagecheckerboard="false"
     borderlayer="false"
     showborder="true"
     inkscape:showpageshadow="false" />
  <metadata
     id="metadata5049">
    <rdf:RDF>
      <cc:Work
         rdf:about="">
        <dc:format>image/svg+xml</dc:format>
        <dc:type
           rdf:resource="http://purl.org/dc/dcmitype/StillImage" />
        <dc:title />
      </cc:Work>
    </rdf:RDF>
  </metadata>
  <g
     inkscape:label="Layer 1"
     inkscape:groupmode="layer"
     id="layer1"
     transform="translate(0,-131.63541)">
    <g
       id="g4745"
       transform="matrix(1.6261772,0,0,1.6261772,-53.913421,-147.82808)">
      <path
         sodipodi:nodetypes="ccaaaaaaaaac"
         inkscape:connector-curvature="0"
         id="path4708"
         d="m 83.816221,236.90178 0.0945,-31.18303 c 0,0 1.291832,-1.70288 2.173362,-2.26786 0.729632,-0.46763 1.606965,-0.68092 2.456847,-0.85045 1.021222,-0.20371 2.079398,-0.26019 3.118302,-0.18899 0.801165,0.0549 1.585417,0.26936 2.362351,0.47247 1.486413,0.38859 2.906976,0.99982 4.383723,1.42366 0.684077,0.19634 1.38205,0.34065 2.071334,0.51784 0.88686,0.22798 1.75643,0.53042 2.65599,0.70158 0.93088,0.17712 1.88024,0.23905 2.82304,0.33409 0.86724,0.0874 1.7381,0.13519 2.60587,0.21715 0.89746,0.0848 2.6894,0.28398 2.6894,0.28398"
         style="fill:none;stroke:#000000;stroke-width:0.26458335px;stroke-linecap:round;stroke-linejoin:miter;stroke-opacity:1" />
      <path
         sodipodi:nodetypes="caaaaaaaaaac"
         inkscape:connector-curvature="0"
         id="path4710"
         d="m 56.696429,205.90773 c 0,0 0.753021,0.14434 1.13393,0.14174 1.144786,-0.008 2.268053,-0.31358 3.401785,-0.47247 1.559424,-0.21856 3.131461,-0.36234 4.677455,-0.66146 1.162552,-0.22493 2.303826,-0.54941 3.449034,-0.85044 1.755403,-0.46143 3.462054,-1.12185 5.244421,-1.46466 0.575559,-0.1107 1.16288,-0.15745 1.748139,-0.18899 0.927844,-0.05 1.864657,-0.1078 2.787573,0 0.610866,0.0713 1.227238,0.18974 1.795389,0.42523 0.581406,0.24098 1.153712,0.55494 1.606399,0.99218 0.40843,0.39449 0.593787,0.97117 0.944941,1.41741 0.129229,0.16422 0.425223,0.46066 0.425223,0.46066"
         style="fill:none;stroke:#000000;stroke-width:0.26458335px;stroke-linecap:round;stroke-linejoin:miter;stroke-opacity:1" />
      <path
         sodipodi:nodetypes="cc"
         inkscape:connector-curvature="0"
         id="path4712"
         d="m 53.854812,207.89902 2.856441,-1.98782"
         style="fill:none;stroke:#000000;stroke-width:0.26458335px;stroke-linecap:round;stroke-linejoin:miter;stroke-opacity:1" />
      <path
         sodipodi:nodetypes="cc"
         inkscape:connector-curvature="0"
         id="path4712-9"
         d="m 114.04386,208.0734 -2.84606,-1.75302"
         style="fill:none;stroke:#000000;stroke-width:0.26458335px;stroke-linecap:round;stroke-linejoin:miter;stroke-opacity:1" />
      <path
         sodipodi:nodetypes="ccaaaaaaaaaaaaaacaaaaaaaaaaacc"
         inkscape:connector-curvature="0"
         id="path4729"
         d="m 56.826506,205.96502 -12.760442,29.12867 c 0,0 0.736211,-0.001 1.102487,-0.0334 0.93039,-0.0811 1.847267,-0.27694 2.772921,-0.4009 1.623705,-0.21744 3.248781,-0.42695 4.877671,-0.60136 0.856132,-0.0917 1.724829,-0.0826 2.572469,-0.23386 0.760573,-0.1357 1.489625,-0.41096 2.238381,-0.60135 1.387408,-0.35279 2.78704,-0.65599 4.176088,-1.00227 1.294681,-0.32275 2.575894,-0.69955 3.875408,-1.00226 1.174162,-0.27351 2.346675,-0.57287 3.541321,-0.73499 1.017384,-0.13807 2.047246,-0.22753 3.073598,-0.20045 0.851971,0.0225 1.706948,0.11643 2.539061,0.30068 0.904281,0.20023 1.77265,0.54189 2.639288,0.86862 0.770326,0.29042 1.558713,0.55744 2.271791,0.96886 0.72344,0.4174 1.424457,0.90246 2.004521,1.50339 0.744494,0.77127 1.2901,1.7176 1.837478,2.63929 0.152582,0.25692 0.400905,0.8018 0.400905,0.8018 0,0 0.481789,-1.38755 0.868624,-2.00452 0.507545,-0.80949 1.170884,-1.52127 1.870888,-2.17156 0.548289,-0.50935 1.146363,-0.97931 1.804069,-1.33635 0.699899,-0.37994 1.469006,-0.62961 2.238383,-0.83522 0.916194,-0.24485 1.862632,-0.37394 2.80633,-0.46772 1.008978,-0.10027 2.026308,-0.11166 3.040192,-0.10023 0.802994,0.009 1.609381,0.0278 2.405425,0.13364 1.331537,0.17698 2.631337,0.54217 3.942227,0.83522 1.51841,0.33944 3.02654,0.72358 4.54358,1.06907 3.07979,0.7014 6.14671,1.47179 9.25421,2.03793 1.76012,0.32066 3.55117,0.45154 5.31198,0.7684 0.57182,0.1029 1.70384,0.3675 1.70384,0.3675 L 110.99882,206.2991"
         style="fill:none;stroke:#000000;stroke-width:0.5291667;stroke-linecap:butt;stroke-linejoin:miter;stroke-miterlimit:4;stroke-dasharray:none;stroke-opacity:1" />
      <path
         sodipodi:nodetypes="cc"
         inkscape:connector-curvature="0"
         id="path4731"
         d="m 128.42539,238.27325 -4.61278,-2.54479"
         style="fill:none;stroke:#000000;stroke-width:0.26458335px;stroke-linecap:butt;stroke-linejoin:miter;stroke-opacity:1" />
      <path
         sodipodi:nodetypes="cc"
         inkscape:connector-curvature="0"
         id="path4733"
         d="M 39.438961,238.43456 44.1997,235.09369"
         style="fill:none;stroke:#000000;stroke-width:0.26458335px;stroke-linecap:butt;stroke-linejoin:miter;stroke-opacity:1" />
      <path
         sodipodi:nodetypes="cccaccaaccaaccaaccccaaaaaaaaaaaaccaaaaaaaaacc"
         inkscape:connector-curvature="0"
         id="path4735"
         d="m 53.871515,207.93242 -1.870885,-0.0334 -16.804574,32.00552 c 0,0 -0.14747,0.85348 0.05011,1.20272 0.144483,0.25539 0.734991,0.48442 0.734991,0.48442 h 42.896759 c 0,0 -0.518666,0.28094 -0.618061,0.53454 -0.0736,0.18778 -0.05244,0.43871 0.06682,0.60136 0.154785,0.21109 0.718288,0.31738 0.718288,0.31738 h 9.638406 c 0,0 0.606131,-0.17543 0.7684,-0.41761 0.115347,-0.17215 0.140056,-0.42421 0.06682,-0.61806 -0.09332,-0.24702 -0.584652,-0.53454 -0.584652,-0.53454 h 43.347783 c 0,0 0.32652,-0.1097 0.43431,-0.23386 0.0739,-0.0851 0.0971,-0.20639 0.11693,-0.31738 0.0469,-0.26312 0,-0.80181 0,-0.80181 l -17.20548,-32.38973 -1.83302,0.0184 14.80013,30.61607 c 0,0 -4.78602,0.10272 -7.16974,-0.0709 -0.69752,-0.0508 -1.38332,-0.21044 -2.07886,-0.28348 -1.38209,-0.14513 -2.77969,-0.12759 -4.15774,-0.3071 -2.03382,-0.26494 -4.04246,-0.70272 -6.04762,-1.13393 -1.95683,-0.42082 -3.89871,-0.91045 -5.83501,-1.41741 -0.70422,-0.18438 -1.38907,-0.44587 -2.10249,-0.59059 -0.91797,-0.18622 -1.854561,-0.2717 -2.787577,-0.35435 -1.24874,-0.11062 -2.502611,-0.20499 -3.756139,-0.18899 -0.623826,0.008 -1.249837,0.0456 -1.866257,0.14174 -0.671821,0.10482 -1.370221,0.18067 -1.984375,0.47247 -0.856554,0.40697 -1.65878,0.99514 -2.259044,1.7293 -0.458699,0.56102 -0.744819,1.26003 -0.952148,1.95441 -0.226442,0.75839 -0.300678,2.35531 -0.300678,2.35531 H 80.83233 c 0,0 -0.11724,-0.56547 -0.217157,-0.83522 -0.3036,-0.81965 -0.617041,-1.66453 -1.152599,-2.35531 -0.430738,-0.55558 -0.990372,-1.02605 -1.603619,-1.36975 -0.945096,-0.52969 -2.036744,-0.75467 -3.090537,-1.00626 -0.899106,-0.21466 -1.816362,-0.39776 -2.740329,-0.42523 -1.66823,-0.0496 -3.331309,0.24397 -4.98456,0.47247 -4.265645,0.58957 -8.470857,1.55508 -12.709451,2.31511 -1.070407,0.19194 -2.132358,0.44341 -3.212796,0.56696 -1.770606,0.20248 -3.558269,0.21041 -5.338916,0.28348 -2.172447,0.0891 -6.520087,0.18899 -6.520087,0.18899 z"
         style="fill:#000000;fill-opacity:1;stroke:#000000;stroke-width:0.26458335px;stroke-linecap:butt;stroke-linejoin:miter;stroke-opacity:1" />
    </g>
  </g>
</svg>
