<?xml version="1.0" encoding="UTF-8" standalone="no"?>
<!-- Created with Inkscape (http://www.inkscape.org/) -->

<svg
   xmlns:dc="http://purl.org/dc/elements/1.1/"
   xmlns:cc="http://creativecommons.org/ns#"
   xmlns:rdf="http://www.w3.org/1999/02/22-rdf-syntax-ns#"
   xmlns:svg="http://www.w3.org/2000/svg"
   xmlns="http://www.w3.org/2000/svg"
   xmlns:sodipodi="http://sodipodi.sourceforge.net/DTD/sodipodi-0.dtd"
   xmlns:inkscape="http://www.inkscape.org/namespaces/inkscape"
   width="625"
   height="625"
   viewBox="0 0 165.36458 165.36459"
   version="1.1"
   id="svg5052"
   inkscape:version="0.92.3 (2405546, 2018-03-11)"
   sodipodi:docname="image60.svg">
  <defs
     id="defs5046" />
  <sodipodi:namedview
     id="base"
     pagecolor="#ffffff"
     bordercolor="#666666"
     borderopacity="1.0"
     inkscape:pageopacity="0.0"
     inkscape:pageshadow="2"
     inkscape:zoom="0.35"
     inkscape:cx="-44.543724"
     inkscape:cy="479.70216"
     inkscape:document-units="px"
     inkscape:current-layer="layer1"
     showgrid="false"
     units="px"
     inkscape:snap-to-guides="false"
     inkscape:snap-grids="false"
     inkscape:snap-others="false"
     inkscape:object-nodes="false"
     inkscape:snap-nodes="false"
     inkscape:snap-global="true"
     inkscape:window-width="1366"
     inkscape:window-height="705"
     inkscape:window-x="-8"
     inkscape:window-y="-8"
     inkscape:window-maximized="1"
     inkscape:snap-bbox="true"
     inkscape:snap-bbox-midpoints="true" />
  <metadata
     id="metadata5049">
    <rdf:RDF>
      <cc:Work
         rdf:about="">
        <dc:format>image/svg+xml</dc:format>
        <dc:type
           rdf:resource="http://purl.org/dc/dcmitype/StillImage" />
        <dc:title />
      </cc:Work>
    </rdf:RDF>
  </metadata>
  <g
     inkscape:label="Layer 1"
     inkscape:groupmode="layer"
     id="layer1"
     transform="translate(0,-131.63541)">
    <g
       id="g924"
       transform="matrix(1.2184479,0,0,1.146538,-18.06177,-31.626297)">
      <rect
         ry="0"
         y="213.47502"
         x="19.559999"
         height="39.704605"
         width="126.24454"
         id="rect4894"
         style="fill:#ffffff;fill-opacity:1;stroke:#000000;stroke-width:6.04712343;stroke-miterlimit:4;stroke-dasharray:none;stroke-opacity:1" />
      <g
         transform="matrix(15.236847,0,0,15.236847,-1073.3556,-3663.8564)"
         id="g4944">
        <path
           style="fill:none;stroke:#000000;stroke-width:0.26458335px;stroke-linecap:butt;stroke-linejoin:miter;stroke-opacity:1"
           d="m 79.589001,253.24642 c 0,0 -0.390314,-0.42423 -0.598142,-0.61292 -0.207829,-0.18869 -0.401165,-0.41322 -0.64539,-0.5893 -0.244226,-0.17608 -0.522819,-0.34009 -0.822567,-0.45937 -0.299747,-0.11928 -0.584503,-0.17716 -0.940684,-0.17589 -0.35618,0.001 -0.854931,0.0495 -1.229304,0.13067 -0.374373,0.0812 -0.709335,0.19693 -1.016693,0.35509 -0.307358,0.15816 -0.595127,0.3883 -0.827704,0.59133 -0.232578,0.20303 -0.567847,0.62676 -0.567847,0.62676"
           id="path4930"
           inkscape:connector-curvature="0"
           sodipodi:nodetypes="czzzzzzzc" />
        <path
           sodipodi:type="star"
           style="fill:#ffffff;fill-opacity:1;stroke:#000000;stroke-width:0.39687502;stroke-miterlimit:4;stroke-dasharray:none;stroke-opacity:1"
           id="path4932"
           sodipodi:sides="3"
           sodipodi:cx="72.496864"
           sodipodi:cy="245.41698"
           sodipodi:r1="0.17035156"
           sodipodi:r2="0.085175782"
           sodipodi:arg1="-1.7681919"
           sodipodi:arg2="-0.72099434"
           inkscape:flatsided="false"
           inkscape:rounded="0"
           inkscape:randomized="0"
           d="m 72.463456,245.24993 0.09739,0.11082 0.09739,0.11082 -0.144664,0.0289 -0.144664,0.0289 0.04727,-0.13975 z"
           inkscape:transform-center-x="-0.022727722"
           inkscape:transform-center-y="-0.021352044"
           transform="rotate(-124.16842,74.744789,249.20292)" />
      </g>
      <g
         transform="translate(2.8916135,0.26726953)"
         id="g858">
        <path
           sodipodi:type="star"
           style="fill:#000000;fill-opacity:1;stroke:#000000;stroke-width:1.62900007;stroke-linecap:round;stroke-miterlimit:4;stroke-dasharray:none;stroke-opacity:1"
           id="path827"
           sodipodi:sides="3"
           sodipodi:cx="29.399651"
           sodipodi:cy="266.26401"
           sodipodi:r1="5.6380572"
           sodipodi:r2="2.8190286"
           sodipodi:arg1="0.52359878"
           sodipodi:arg2="1.5707963"
           inkscape:flatsided="true"
           inkscape:rounded="0"
           inkscape:randomized="0"
           d="m 34.282351,269.08304 -9.765401,0 4.882701,-8.45709 z"
           inkscape:transform-center-y="-1.4569504"
           transform="matrix(0.77306749,0,0,1.033661,19.300222,-67.968118)" />
        <path
           sodipodi:type="star"
           style="fill:#000000;fill-opacity:1;stroke:#000000;stroke-width:1.62900007;stroke-linecap:round;stroke-miterlimit:4;stroke-dasharray:none;stroke-opacity:1"
           id="path827-2"
           sodipodi:sides="3"
           sodipodi:cx="29.399651"
           sodipodi:cy="266.26401"
           sodipodi:r1="5.6380572"
           sodipodi:r2="2.8190286"
           sodipodi:arg1="0.52359878"
           sodipodi:arg2="1.5707963"
           inkscape:flatsided="true"
           inkscape:rounded="0"
           inkscape:randomized="0"
           d="m 34.282351,269.08304 -9.765401,0 4.882701,-8.45709 z"
           inkscape:transform-center-y="1.4569509"
           transform="matrix(-0.7730675,0,0,-1.033661,52.328684,534.28696)" />
        <path
           style="fill:none;stroke:#000000;stroke-width:2.64583325;stroke-linecap:butt;stroke-linejoin:miter;stroke-miterlimit:4;stroke-dasharray:none;stroke-opacity:1"
           d="M 32.883931,256.17857 38.74256,210.15996"
           id="path853"
           inkscape:connector-curvature="0" />
      </g>
      <g
         transform="translate(92.474924,-0.30411416)"
         id="g858-4">
        <path
           sodipodi:type="star"
           style="fill:#000000;fill-opacity:1;stroke:#000000;stroke-width:1.62900007;stroke-linecap:round;stroke-miterlimit:4;stroke-dasharray:none;stroke-opacity:1"
           id="path827-5"
           sodipodi:sides="3"
           sodipodi:cx="29.399651"
           sodipodi:cy="266.26401"
           sodipodi:r1="5.6380572"
           sodipodi:r2="2.8190286"
           sodipodi:arg1="0.52359878"
           sodipodi:arg2="1.5707963"
           inkscape:flatsided="true"
           inkscape:rounded="0"
           inkscape:randomized="0"
           d="m 34.282351,269.08304 -9.765401,0 4.882701,-8.45709 z"
           inkscape:transform-center-y="-1.4569504"
           transform="matrix(0.77306749,0,0,1.033661,19.300222,-67.968118)" />
        <path
           sodipodi:type="star"
           style="fill:#000000;fill-opacity:1;stroke:#000000;stroke-width:1.62900007;stroke-linecap:round;stroke-miterlimit:4;stroke-dasharray:none;stroke-opacity:1"
           id="path827-2-4"
           sodipodi:sides="3"
           sodipodi:cx="29.399651"
           sodipodi:cy="266.26401"
           sodipodi:r1="5.6380572"
           sodipodi:r2="2.8190286"
           sodipodi:arg1="0.52359878"
           sodipodi:arg2="1.5707963"
           inkscape:flatsided="true"
           inkscape:rounded="0"
           inkscape:randomized="0"
           d="m 34.282351,269.08304 -9.765401,0 4.882701,-8.45709 z"
           inkscape:transform-center-y="1.4569509"
           transform="matrix(-0.7730675,0,0,-1.033661,52.328684,534.28696)" />
        <path
           style="fill:none;stroke:#000000;stroke-width:2.64583325;stroke-linecap:butt;stroke-linejoin:miter;stroke-miterlimit:4;stroke-dasharray:none;stroke-opacity:1"
           d="M 32.883931,256.17857 38.74256,210.15996"
           id="path853-5"
           inkscape:connector-curvature="0" />
      </g>
      <g
         transform="translate(47.68327,-0.29427016)"
         id="g858-4-0">
        <path
           sodipodi:type="star"
           style="fill:#000000;fill-opacity:1;stroke:#000000;stroke-width:1.62900007;stroke-linecap:round;stroke-miterlimit:4;stroke-dasharray:none;stroke-opacity:1"
           id="path827-5-7"
           sodipodi:sides="3"
           sodipodi:cx="29.399651"
           sodipodi:cy="266.26401"
           sodipodi:r1="5.6380572"
           sodipodi:r2="2.8190286"
           sodipodi:arg1="0.52359878"
           sodipodi:arg2="1.5707963"
           inkscape:flatsided="true"
           inkscape:rounded="0"
           inkscape:randomized="0"
           d="m 34.282351,269.08304 -9.765401,0 4.882701,-8.45709 z"
           inkscape:transform-center-y="-1.4569504"
           transform="matrix(0.77306749,0,0,1.033661,19.300222,-67.968118)" />
        <path
           sodipodi:type="star"
           style="fill:#000000;fill-opacity:1;stroke:#000000;stroke-width:1.62900007;stroke-linecap:round;stroke-miterlimit:4;stroke-dasharray:none;stroke-opacity:1"
           id="path827-2-4-9"
           sodipodi:sides="3"
           sodipodi:cx="29.399651"
           sodipodi:cy="266.26401"
           sodipodi:r1="5.6380572"
           sodipodi:r2="2.8190286"
           sodipodi:arg1="0.52359878"
           sodipodi:arg2="1.5707963"
           inkscape:flatsided="true"
           inkscape:rounded="0"
           inkscape:randomized="0"
           d="m 34.282351,269.08304 -9.765401,0 4.882701,-8.45709 z"
           inkscape:transform-center-y="1.4569509"
           transform="matrix(-0.7730675,0,0,-1.033661,52.328684,534.28696)" />
        <path
           style="fill:none;stroke:#000000;stroke-width:2.64583325;stroke-linecap:butt;stroke-linejoin:miter;stroke-miterlimit:4;stroke-dasharray:none;stroke-opacity:1"
           d="M 32.883931,256.17857 38.74256,210.15996"
           id="path853-5-6"
           inkscape:connector-curvature="0" />
      </g>
    </g>
  </g>
</svg>
