<?xml version="1.0" encoding="UTF-8" standalone="no"?>
<!-- Created with Inkscape (http://www.inkscape.org/) -->

<svg
   xmlns:dc="http://purl.org/dc/elements/1.1/"
   xmlns:cc="http://creativecommons.org/ns#"
   xmlns:rdf="http://www.w3.org/1999/02/22-rdf-syntax-ns#"
   xmlns:svg="http://www.w3.org/2000/svg"
   xmlns="http://www.w3.org/2000/svg"
   xmlns:xlink="http://www.w3.org/1999/xlink"
   xmlns:sodipodi="http://sodipodi.sourceforge.net/DTD/sodipodi-0.dtd"
   xmlns:inkscape="http://www.inkscape.org/namespaces/inkscape"
   width="546.05109"
   height="368.31552"
   viewBox="0 0 144.47601 97.450152"
   version="1.1"
   id="svg5052"
   inkscape:version="0.92.3 (unknown)"
   sodipodi:docname="image104.svg">
  <defs
     id="defs5046" />
  <sodipodi:namedview
     id="base"
     pagecolor="#ffffff"
     bordercolor="#666666"
     borderopacity="1.0"
     inkscape:pageopacity="0.0"
     inkscape:pageshadow="2"
     inkscape:zoom="0.24748737"
     inkscape:cx="709.38823"
     inkscape:cy="409.71996"
     inkscape:document-units="px"
     inkscape:current-layer="layer1"
     showgrid="false"
     units="px"
     inkscape:snap-to-guides="true"
     inkscape:snap-grids="false"
     inkscape:snap-others="false"
     inkscape:object-nodes="false"
     inkscape:snap-nodes="true"
     inkscape:snap-global="true"
     inkscape:window-width="1855"
     inkscape:window-height="1056"
     inkscape:window-x="65"
     inkscape:window-y="24"
     inkscape:window-maximized="1"
     inkscape:snap-bbox="true"
     showguides="true"
     inkscape:guide-bbox="true" />
  <metadata
     id="metadata5049">
    <rdf:RDF>
      <cc:Work
         rdf:about="">
        <dc:format>image/svg+xml</dc:format>
        <dc:type
           rdf:resource="http://purl.org/dc/dcmitype/StillImage" />
        <dc:title />
      </cc:Work>
    </rdf:RDF>
  </metadata>
  <g
     inkscape:label="Layer 1"
     inkscape:groupmode="layer"
     id="layer1"
     transform="translate(-10.444281,-165.59263)">
    <g
       id="g8013"
       transform="translate(-9.799536,-17.42072)">
      <path
         inkscape:connector-curvature="0"
         id="path6105"
         d="M 22.692749,277.42765 142.67185,251.45271 V 210.0167 l -39.58078,27.21169 V 217.438 L 51.141389,247.12359 V 222.3856 l -28.44864,21.64581 z"
         style="fill:none;stroke:#000000;stroke-width:4.89786339px;stroke-linecap:butt;stroke-linejoin:miter;stroke-opacity:1" />
      <path
         inkscape:connector-curvature="0"
         id="path6109"
         d="M 77.734609,203.21368 Z"
         style="fill:none;stroke:#000000;stroke-width:4.89786339px;stroke-linecap:butt;stroke-linejoin:miter;stroke-opacity:1" />
      <rect
         y="208.91501"
         x="60.338062"
         height="1.8708867"
         width="2.4054258"
         id="rect6408"
         style="fill:#000000;fill-opacity:1;stroke:#000000;stroke-width:0.26458335;stroke-linecap:round;stroke-miterlimit:4;stroke-dasharray:none;stroke-opacity:1" />
      <use
         transform="translate(-17.569518,2.3060795)"
         height="100%"
         width="100%"
         y="0"
         x="0"
         xlink:href="#rect6408"
         inkscape:spray-origin="#rect6408"
         id="use7138" />
      <use
         transform="translate(-20.907978,6.0048483)"
         height="100%"
         width="100%"
         y="0"
         x="0"
         xlink:href="#rect6408"
         inkscape:spray-origin="#rect6408"
         id="use7140" />
      <use
         transform="translate(-13.62872,-8.3117044)"
         height="100%"
         width="100%"
         y="0"
         x="0"
         xlink:href="#rect6408"
         inkscape:spray-origin="#rect6408"
         id="use7142" />
      <use
         transform="translate(-19.954487,5.292324)"
         height="100%"
         width="100%"
         y="0"
         x="0"
         xlink:href="#rect6408"
         inkscape:spray-origin="#rect6408"
         id="use7144" />
      <use
         transform="translate(-16.418947,-5.0667412)"
         height="100%"
         width="100%"
         y="0"
         x="0"
         xlink:href="#rect6408"
         inkscape:spray-origin="#rect6408"
         id="use7146" />
      <use
         transform="translate(-23.8566,-2.8538828)"
         height="100%"
         width="100%"
         y="0"
         x="0"
         xlink:href="#rect6408"
         inkscape:spray-origin="#rect6408"
         id="use7148" />
      <use
         transform="translate(-17.222736,-2.3764066)"
         height="100%"
         width="100%"
         y="0"
         x="0"
         xlink:href="#rect6408"
         inkscape:spray-origin="#rect6408"
         id="use7150" />
      <use
         transform="translate(-18.531406,-11.395853)"
         height="100%"
         width="100%"
         y="0"
         x="0"
         xlink:href="#rect6408"
         inkscape:spray-origin="#rect6408"
         id="use7152" />
      <use
         transform="translate(-17.401144,1.6369513)"
         height="100%"
         width="100%"
         y="0"
         x="0"
         xlink:href="#rect6408"
         inkscape:spray-origin="#rect6408"
         id="use7154" />
      <use
         transform="translate(-16.586936,-2.9197632)"
         height="100%"
         width="100%"
         y="0"
         x="0"
         xlink:href="#rect6408"
         inkscape:spray-origin="#rect6408"
         id="use7156" />
      <use
         transform="translate(-11.665918,-0.46639129)"
         height="100%"
         width="100%"
         y="0"
         x="0"
         xlink:href="#rect6408"
         inkscape:spray-origin="#rect6408"
         id="use7158" />
      <use
         transform="translate(-5.5454293,-7.6152393)"
         height="100%"
         width="100%"
         y="0"
         x="0"
         xlink:href="#rect6408"
         inkscape:spray-origin="#rect6408"
         id="use7160" />
      <use
         transform="translate(-5.928596,0.90945112)"
         height="100%"
         width="100%"
         y="0"
         x="0"
         xlink:href="#rect6408"
         inkscape:spray-origin="#rect6408"
         id="use7162" />
      <use
         transform="translate(-4.1966681,-2.5500057)"
         height="100%"
         width="100%"
         y="0"
         x="0"
         xlink:href="#rect6408"
         inkscape:spray-origin="#rect6408"
         id="use7164" />
      <use
         transform="translate(-0.05226964,-10.082979)"
         height="100%"
         width="100%"
         y="0"
         x="0"
         xlink:href="#rect6408"
         inkscape:spray-origin="#rect6408"
         id="use7166" />
      <use
         transform="translate(-7.09771,-7.4037774)"
         height="100%"
         width="100%"
         y="0"
         x="0"
         xlink:href="#rect6408"
         inkscape:spray-origin="#rect6408"
         id="use7168" />
      <use
         transform="translate(-6.0319575,-9.6951813)"
         height="100%"
         width="100%"
         y="0"
         x="0"
         xlink:href="#rect6408"
         inkscape:spray-origin="#rect6408"
         id="use7170" />
      <use
         transform="translate(1.0203782,1.8408221)"
         height="100%"
         width="100%"
         y="0"
         x="0"
         xlink:href="#rect6408"
         inkscape:spray-origin="#rect6408"
         id="use7172" />
      <use
         transform="translate(4.8266822,-4.2817712)"
         height="100%"
         width="100%"
         y="0"
         x="0"
         xlink:href="#rect6408"
         inkscape:spray-origin="#rect6408"
         id="use7174" />
      <use
         transform="translate(-6.2868551,-2.4235793)"
         height="100%"
         width="100%"
         y="0"
         x="0"
         xlink:href="#rect6408"
         inkscape:spray-origin="#rect6408"
         id="use7176" />
      <use
         transform="translate(-1.0719454,-1.9179405)"
         height="100%"
         width="100%"
         y="0"
         x="0"
         xlink:href="#rect6408"
         inkscape:spray-origin="#rect6408"
         id="use7178" />
      <use
         transform="translate(1.4231205,-4.2078201)"
         height="100%"
         width="100%"
         y="0"
         x="0"
         xlink:href="#rect6408"
         inkscape:spray-origin="#rect6408"
         id="use7180" />
      <use
         transform="translate(7.6314315,-11.770415)"
         height="100%"
         width="100%"
         y="0"
         x="0"
         xlink:href="#rect6408"
         inkscape:spray-origin="#rect6408"
         id="use7182" />
      <use
         transform="translate(11.501907,-0.58212142)"
         height="100%"
         width="100%"
         y="0"
         x="0"
         xlink:href="#rect6408"
         inkscape:spray-origin="#rect6408"
         id="use7184" />
      <use
         transform="translate(-1.0927688,-0.3813224)"
         height="100%"
         width="100%"
         y="0"
         x="0"
         xlink:href="#rect6408"
         inkscape:spray-origin="#rect6408"
         id="use7186" />
      <use
         transform="translate(15.429008,3.9229277)"
         height="100%"
         width="100%"
         y="0"
         x="0"
         xlink:href="#rect6408"
         inkscape:spray-origin="#rect6408"
         id="use7188" />
      <use
         transform="translate(8.8901886,-1.8367043)"
         height="100%"
         width="100%"
         y="0"
         x="0"
         xlink:href="#rect6408"
         inkscape:spray-origin="#rect6408"
         id="use7190" />
      <use
         transform="translate(10.605557,-8.2511656)"
         height="100%"
         width="100%"
         y="0"
         x="0"
         xlink:href="#rect6408"
         inkscape:spray-origin="#rect6408"
         id="use7192" />
      <use
         transform="translate(7.7535487,8.2606195)"
         height="100%"
         width="100%"
         y="0"
         x="0"
         xlink:href="#rect6408"
         inkscape:spray-origin="#rect6408"
         id="use7194" />
      <use
         transform="translate(4.6058507,7.9514877)"
         height="100%"
         width="100%"
         y="0"
         x="0"
         xlink:href="#rect6408"
         inkscape:spray-origin="#rect6408"
         id="use7196" />
      <use
         transform="translate(12.166946,3.444667)"
         height="100%"
         width="100%"
         y="0"
         x="0"
         xlink:href="#rect6408"
         inkscape:spray-origin="#rect6408"
         id="use7198" />
      <use
         transform="translate(14.467139,-5.2748033)"
         height="100%"
         width="100%"
         y="0"
         x="0"
         xlink:href="#rect6408"
         inkscape:spray-origin="#rect6408"
         id="use7200" />
      <use
         transform="translate(9.6648383,-3.224981)"
         height="100%"
         width="100%"
         y="0"
         x="0"
         xlink:href="#rect6408"
         inkscape:spray-origin="#rect6408"
         id="use7202" />
      <use
         transform="translate(19.09831,-1.1151578)"
         height="100%"
         width="100%"
         y="0"
         x="0"
         xlink:href="#rect6408"
         inkscape:spray-origin="#rect6408"
         id="use7204" />
      <use
         transform="translate(16.838445,2.4839617)"
         height="100%"
         width="100%"
         y="0"
         x="0"
         xlink:href="#rect6408"
         inkscape:spray-origin="#rect6408"
         id="use7206" />
      <use
         transform="translate(22.556476,4.959379)"
         height="100%"
         width="100%"
         y="0"
         x="0"
         xlink:href="#rect6408"
         inkscape:spray-origin="#rect6408"
         id="use7208" />
      <use
         transform="translate(9.1728587,8.7550497)"
         height="100%"
         width="100%"
         y="0"
         x="0"
         xlink:href="#rect6408"
         inkscape:spray-origin="#rect6408"
         id="use7210" />
      <use
         transform="translate(8.8354561,0.30971828)"
         height="100%"
         width="100%"
         y="0"
         x="0"
         xlink:href="#rect6408"
         inkscape:spray-origin="#rect6408"
         id="use7212" />
      <use
         transform="translate(22.033847,2.264279)"
         height="100%"
         width="100%"
         y="0"
         x="0"
         xlink:href="#rect6408"
         inkscape:spray-origin="#rect6408"
         id="use7214" />
      <use
         transform="translate(24.660599,0.60262252)"
         height="100%"
         width="100%"
         y="0"
         x="0"
         xlink:href="#rect6408"
         inkscape:spray-origin="#rect6408"
         id="use7216" />
      <use
         transform="translate(15.135947,3.5482741)"
         height="100%"
         width="100%"
         y="0"
         x="0"
         xlink:href="#rect6408"
         inkscape:spray-origin="#rect6408"
         id="use7218" />
      <use
         transform="translate(26.949924,-10.655858)"
         height="100%"
         width="100%"
         y="0"
         x="0"
         xlink:href="#rect6408"
         inkscape:spray-origin="#rect6408"
         id="use7220" />
      <use
         transform="translate(21.160048,2.7789587)"
         height="100%"
         width="100%"
         y="0"
         x="0"
         xlink:href="#rect6408"
         inkscape:spray-origin="#rect6408"
         id="use7222" />
      <use
         transform="translate(29.221102,-7.3785904)"
         height="100%"
         width="100%"
         y="0"
         x="0"
         xlink:href="#rect6408"
         inkscape:spray-origin="#rect6408"
         id="use7224" />
      <use
         transform="translate(24.461373,-8.2314818)"
         height="100%"
         width="100%"
         y="0"
         x="0"
         xlink:href="#rect6408"
         inkscape:spray-origin="#rect6408"
         id="use7226" />
      <use
         transform="translate(31.447513,-2.1979159)"
         height="100%"
         width="100%"
         y="0"
         x="0"
         xlink:href="#rect6408"
         inkscape:spray-origin="#rect6408"
         id="use7228" />
      <use
         transform="translate(33.287068,-14.39066)"
         height="100%"
         width="100%"
         y="0"
         x="0"
         xlink:href="#rect6408"
         inkscape:spray-origin="#rect6408"
         id="use7230" />
      <use
         transform="translate(34.078339,-1.6968953)"
         height="100%"
         width="100%"
         y="0"
         x="0"
         xlink:href="#rect6408"
         inkscape:spray-origin="#rect6408"
         id="use7232" />
      <use
         transform="translate(39.652983,-10.676572)"
         height="100%"
         width="100%"
         y="0"
         x="0"
         xlink:href="#rect6408"
         inkscape:spray-origin="#rect6408"
         id="use7234" />
      <use
         transform="translate(39.456585,-4.6546732)"
         height="100%"
         width="100%"
         y="0"
         x="0"
         xlink:href="#rect6408"
         inkscape:spray-origin="#rect6408"
         id="use7236" />
      <use
         transform="translate(37.784013,-4.6979372)"
         height="100%"
         width="100%"
         y="0"
         x="0"
         xlink:href="#rect6408"
         inkscape:spray-origin="#rect6408"
         id="use7238" />
      <use
         transform="translate(41.924444,-18.56338)"
         height="100%"
         width="100%"
         y="0"
         x="0"
         xlink:href="#rect6408"
         inkscape:spray-origin="#rect6408"
         id="use7240" />
      <use
         transform="translate(38.400022,-15.292296)"
         height="100%"
         width="100%"
         y="0"
         x="0"
         xlink:href="#rect6408"
         inkscape:spray-origin="#rect6408"
         id="use7242" />
      <use
         transform="translate(48.668249,-9.8301181)"
         height="100%"
         width="100%"
         y="0"
         x="0"
         xlink:href="#rect6408"
         inkscape:spray-origin="#rect6408"
         id="use7244" />
      <use
         transform="translate(38.963562,-17.500397)"
         height="100%"
         width="100%"
         y="0"
         x="0"
         xlink:href="#rect6408"
         inkscape:spray-origin="#rect6408"
         id="use7246" />
      <use
         transform="translate(41.412102,-16.401885)"
         height="100%"
         width="100%"
         y="0"
         x="0"
         xlink:href="#rect6408"
         inkscape:spray-origin="#rect6408"
         id="use7248" />
      <use
         transform="translate(46.038985,-20.266636)"
         height="100%"
         width="100%"
         y="0"
         x="0"
         xlink:href="#rect6408"
         inkscape:spray-origin="#rect6408"
         id="use7250" />
      <use
         transform="translate(48.056154,-12.188448)"
         height="100%"
         width="100%"
         y="0"
         x="0"
         xlink:href="#rect6408"
         inkscape:spray-origin="#rect6408"
         id="use7252" />
      <use
         transform="translate(50.895414,-12.197414)"
         height="100%"
         width="100%"
         y="0"
         x="0"
         xlink:href="#rect6408"
         inkscape:spray-origin="#rect6408"
         id="use7254" />
      <use
         transform="translate(40.243984,-14.498515)"
         height="100%"
         width="100%"
         y="0"
         x="0"
         xlink:href="#rect6408"
         inkscape:spray-origin="#rect6408"
         id="use7256" />
      <use
         transform="translate(49.415381,-19.786564)"
         height="100%"
         width="100%"
         y="0"
         x="0"
         xlink:href="#rect6408"
         inkscape:spray-origin="#rect6408"
         id="use7258" />
      <use
         transform="translate(56.072104,-6.9575178)"
         height="100%"
         width="100%"
         y="0"
         x="0"
         xlink:href="#rect6408"
         inkscape:spray-origin="#rect6408"
         id="use7260" />
      <use
         transform="translate(42.289911,-13.50146)"
         height="100%"
         width="100%"
         y="0"
         x="0"
         xlink:href="#rect6408"
         inkscape:spray-origin="#rect6408"
         id="use7262" />
      <use
         transform="translate(45.874911,-11.443398)"
         height="100%"
         width="100%"
         y="0"
         x="0"
         xlink:href="#rect6408"
         inkscape:spray-origin="#rect6408"
         id="use7264" />
      <use
         transform="translate(52.327938,-5.0980841)"
         height="100%"
         width="100%"
         y="0"
         x="0"
         xlink:href="#rect6408"
         inkscape:spray-origin="#rect6408"
         id="use7266" />
      <use
         transform="translate(50.321199,-0.85566197)"
         height="100%"
         width="100%"
         y="0"
         x="0"
         xlink:href="#rect6408"
         inkscape:spray-origin="#rect6408"
         id="use7268" />
      <use
         transform="translate(52.181735,-0.45338583)"
         height="100%"
         width="100%"
         y="0"
         x="0"
         xlink:href="#rect6408"
         inkscape:spray-origin="#rect6408"
         id="use7270" />
      <use
         transform="translate(50.363571,-13.694233)"
         height="100%"
         width="100%"
         y="0"
         x="0"
         xlink:href="#rect6408"
         inkscape:spray-origin="#rect6408"
         id="use7272" />
      <use
         transform="translate(49.460598,-9.7037975)"
         height="100%"
         width="100%"
         y="0"
         x="0"
         xlink:href="#rect6408"
         inkscape:spray-origin="#rect6408"
         id="use7274" />
      <use
         transform="translate(56.313718,-12.23641)"
         height="100%"
         width="100%"
         y="0"
         x="0"
         xlink:href="#rect6408"
         inkscape:spray-origin="#rect6408"
         id="use7276" />
      <use
         transform="translate(49.95573,-12.630654)"
         height="100%"
         width="100%"
         y="0"
         x="0"
         xlink:href="#rect6408"
         inkscape:spray-origin="#rect6408"
         id="use7278" />
      <use
         transform="translate(62.125033,-1.6259211)"
         height="100%"
         width="100%"
         y="0"
         x="0"
         xlink:href="#rect6408"
         inkscape:spray-origin="#rect6408"
         id="use7280" />
      <use
         transform="translate(56.791634,-8.3725671)"
         height="100%"
         width="100%"
         y="0"
         x="0"
         xlink:href="#rect6408"
         inkscape:spray-origin="#rect6408"
         id="use7282" />
      <use
         transform="translate(55.814163,-3.2995093)"
         height="100%"
         width="100%"
         y="0"
         x="0"
         xlink:href="#rect6408"
         inkscape:spray-origin="#rect6408"
         id="use7284" />
      <use
         transform="translate(63.101761,-9.3588463)"
         height="100%"
         width="100%"
         y="0"
         x="0"
         xlink:href="#rect6408"
         inkscape:spray-origin="#rect6408"
         id="use7286" />
      <use
         transform="translate(59.383551,2.9649152)"
         height="100%"
         width="100%"
         y="0"
         x="0"
         xlink:href="#rect6408"
         inkscape:spray-origin="#rect6408"
         id="use7288" />
      <use
         transform="translate(54.985719,-8.1042152)"
         height="100%"
         width="100%"
         y="0"
         x="0"
         xlink:href="#rect6408"
         inkscape:spray-origin="#rect6408"
         id="use7290" />
      <use
         transform="translate(58.127254,-4.5491298)"
         height="100%"
         width="100%"
         y="0"
         x="0"
         xlink:href="#rect6408"
         inkscape:spray-origin="#rect6408"
         id="use7292" />
      <use
         transform="translate(62.038933,-13.094062)"
         height="100%"
         width="100%"
         y="0"
         x="0"
         xlink:href="#rect6408"
         inkscape:spray-origin="#rect6408"
         id="use7294" />
      <use
         transform="translate(62.951307,-6.3391023)"
         height="100%"
         width="100%"
         y="0"
         x="0"
         xlink:href="#rect6408"
         inkscape:spray-origin="#rect6408"
         id="use7296" />
      <use
         transform="translate(59.72046,-10.521308)"
         height="100%"
         width="100%"
         y="0"
         x="0"
         xlink:href="#rect6408"
         inkscape:spray-origin="#rect6408"
         id="use7298" />
      <use
         transform="translate(61.210889,-11.837322)"
         height="100%"
         width="100%"
         y="0"
         x="0"
         xlink:href="#rect6408"
         inkscape:spray-origin="#rect6408"
         id="use7300" />
      <use
         transform="translate(59.596398,-16.61508)"
         height="100%"
         width="100%"
         y="0"
         x="0"
         xlink:href="#rect6408"
         inkscape:spray-origin="#rect6408"
         id="use7302" />
      <use
         transform="translate(71.699883,-7.8866661)"
         height="100%"
         width="100%"
         y="0"
         x="0"
         xlink:href="#rect6408"
         inkscape:spray-origin="#rect6408"
         id="use7304" />
      <use
         transform="translate(79.2298,-13.383823)"
         height="100%"
         width="100%"
         y="0"
         x="0"
         xlink:href="#rect6408"
         inkscape:spray-origin="#rect6408"
         id="use7306" />
      <use
         transform="translate(74.47739,-20.348537)"
         height="100%"
         width="100%"
         y="0"
         x="0"
         xlink:href="#rect6408"
         inkscape:spray-origin="#rect6408"
         id="use7308" />
      <use
         transform="translate(65.444926,-14.470109)"
         height="100%"
         width="100%"
         y="0"
         x="0"
         xlink:href="#rect6408"
         inkscape:spray-origin="#rect6408"
         id="use7310" />
      <use
         transform="translate(74.301959,-13.563139)"
         height="100%"
         width="100%"
         y="0"
         x="0"
         xlink:href="#rect6408"
         inkscape:spray-origin="#rect6408"
         id="use7312" />
      <use
         transform="translate(73.193068,-10.260338)"
         height="100%"
         width="100%"
         y="0"
         x="0"
         xlink:href="#rect6408"
         inkscape:spray-origin="#rect6408"
         id="use7314" />
      <use
         transform="translate(75.335815,-17.499075)"
         height="100%"
         width="100%"
         y="0"
         x="0"
         xlink:href="#rect6408"
         inkscape:spray-origin="#rect6408"
         id="use7316" />
      <use
         transform="translate(73.776678,-16.980443)"
         height="100%"
         width="100%"
         y="0"
         x="0"
         xlink:href="#rect6408"
         inkscape:spray-origin="#rect6408"
         id="use7318" />
      <use
         transform="translate(86.540574,-19.068747)"
         height="100%"
         width="100%"
         y="0"
         x="0"
         xlink:href="#rect6408"
         inkscape:spray-origin="#rect6408"
         id="use7320" />
      <use
         transform="translate(84.184505,-15.688728)"
         height="100%"
         width="100%"
         y="0"
         x="0"
         xlink:href="#rect6408"
         inkscape:spray-origin="#rect6408"
         id="use7322" />
      <use
         transform="translate(79.218928,-19.217639)"
         height="100%"
         width="100%"
         y="0"
         x="0"
         xlink:href="#rect6408"
         inkscape:spray-origin="#rect6408"
         id="use7324" />
      <use
         transform="translate(82.997444,-20.171516)"
         height="100%"
         width="100%"
         y="0"
         x="0"
         xlink:href="#rect6408"
         inkscape:spray-origin="#rect6408"
         id="use7326" />
      <use
         transform="translate(90.385344,-15.734793)"
         height="100%"
         width="100%"
         y="0"
         x="0"
         xlink:href="#rect6408"
         inkscape:spray-origin="#rect6408"
         id="use7328" />
      <use
         transform="translate(80.551405,-12.567382)"
         height="100%"
         width="100%"
         y="0"
         x="0"
         xlink:href="#rect6408"
         inkscape:spray-origin="#rect6408"
         id="use7330" />
      <use
         transform="translate(87.291818,-23.990918)"
         height="100%"
         width="100%"
         y="0"
         x="0"
         xlink:href="#rect6408"
         inkscape:spray-origin="#rect6408"
         id="use7332" />
      <use
         transform="translate(83.122895,-18.873465)"
         height="100%"
         width="100%"
         y="0"
         x="0"
         xlink:href="#rect6408"
         inkscape:spray-origin="#rect6408"
         id="use7334" />
      <use
         transform="translate(90.77357,-14.872077)"
         height="100%"
         width="100%"
         y="0"
         x="0"
         xlink:href="#rect6408"
         inkscape:spray-origin="#rect6408"
         id="use7336" />
      <use
         transform="translate(91.805465,-25.76937)"
         height="100%"
         width="100%"
         y="0"
         x="0"
         xlink:href="#rect6408"
         inkscape:spray-origin="#rect6408"
         id="use7338" />
      <use
         transform="translate(83.314135,-22.628729)"
         height="100%"
         width="100%"
         y="0"
         x="0"
         xlink:href="#rect6408"
         inkscape:spray-origin="#rect6408"
         id="use7340" />
      <use
         transform="translate(91.25998,-22.117723)"
         height="100%"
         width="100%"
         y="0"
         x="0"
         xlink:href="#rect6408"
         inkscape:spray-origin="#rect6408"
         id="use7342" />
      <use
         transform="translate(84.286945,-8.7884464)"
         height="100%"
         width="100%"
         y="0"
         x="0"
         xlink:href="#rect6408"
         inkscape:spray-origin="#rect6408"
         id="use7344" />
      <use
         transform="translate(88.694961,-11.130782)"
         height="100%"
         width="100%"
         y="0"
         x="0"
         xlink:href="#rect6408"
         inkscape:spray-origin="#rect6408"
         id="use7346" />
      <use
         transform="translate(87.624418,-12.719471)"
         height="100%"
         width="100%"
         y="0"
         x="0"
         xlink:href="#rect6408"
         inkscape:spray-origin="#rect6408"
         id="use7348" />
      <use
         transform="translate(90.025567,-14.666201)"
         height="100%"
         width="100%"
         y="0"
         x="0"
         xlink:href="#rect6408"
         inkscape:spray-origin="#rect6408"
         id="use7350" />
      <use
         transform="translate(88.449486,-14.574345)"
         height="100%"
         width="100%"
         y="0"
         x="0"
         xlink:href="#rect6408"
         inkscape:spray-origin="#rect6408"
         id="use7352" />
      <use
         transform="translate(101.84406,-9.6726363)"
         height="100%"
         width="100%"
         y="0"
         x="0"
         xlink:href="#rect6408"
         inkscape:spray-origin="#rect6408"
         id="use7354" />
      <use
         transform="translate(96.230724,-8.7229375)"
         height="100%"
         width="100%"
         y="0"
         x="0"
         xlink:href="#rect6408"
         inkscape:spray-origin="#rect6408"
         id="use7356" />
      <use
         transform="translate(98.644069,-0.97318562)"
         height="100%"
         width="100%"
         y="0"
         x="0"
         xlink:href="#rect6408"
         inkscape:spray-origin="#rect6408"
         id="use7360" />
      <use
         transform="translate(93.654243,2.1650456)"
         height="100%"
         width="100%"
         y="0"
         x="0"
         xlink:href="#rect6408"
         inkscape:spray-origin="#rect6408"
         id="use7362" />
      <use
         transform="translate(97.701458,-9.5650861)"
         height="100%"
         width="100%"
         y="0"
         x="0"
         xlink:href="#rect6408"
         inkscape:spray-origin="#rect6408"
         id="use7364" />
      <use
         transform="translate(94.813376,-5.2279166)"
         height="100%"
         width="100%"
         y="0"
         x="0"
         xlink:href="#rect6408"
         inkscape:spray-origin="#rect6408"
         id="use7366" />
      <use
         transform="translate(94.06364,-0.23266111)"
         height="100%"
         width="100%"
         y="0"
         x="0"
         xlink:href="#rect6408"
         inkscape:spray-origin="#rect6408"
         id="use7368" />
      <use
         transform="translate(95.684668,-1.4859294)"
         height="100%"
         width="100%"
         y="0"
         x="0"
         xlink:href="#rect6408"
         inkscape:spray-origin="#rect6408"
         id="use7370" />
      <use
         transform="translate(90.678382,-9.4898922)"
         height="100%"
         width="100%"
         y="0"
         x="0"
         xlink:href="#rect6408"
         inkscape:spray-origin="#rect6408"
         id="use7372" />
      <use
         transform="translate(99.022673,-12.808942)"
         height="100%"
         width="100%"
         y="0"
         x="0"
         xlink:href="#rect6408"
         inkscape:spray-origin="#rect6408"
         id="use7374" />
      <use
         transform="translate(85.662388,-6.4671135)"
         height="100%"
         width="100%"
         y="0"
         x="0"
         xlink:href="#rect6408"
         inkscape:spray-origin="#rect6408"
         id="use7376" />
      <use
         transform="translate(89.57698,-19.78243)"
         height="100%"
         width="100%"
         y="0"
         x="0"
         xlink:href="#rect6408"
         inkscape:spray-origin="#rect6408"
         id="use7378" />
      <use
         transform="translate(85.019391,-12.773081)"
         height="100%"
         width="100%"
         y="0"
         x="0"
         xlink:href="#rect6408"
         inkscape:spray-origin="#rect6408"
         id="use7380" />
      <use
         transform="translate(85.026792,-7.3376059)"
         height="100%"
         width="100%"
         y="0"
         x="0"
         xlink:href="#rect6408"
         inkscape:spray-origin="#rect6408"
         id="use7382" />
      <use
         transform="translate(80.768088,-9.8652485)"
         height="100%"
         width="100%"
         y="0"
         x="0"
         xlink:href="#rect6408"
         inkscape:spray-origin="#rect6408"
         id="use7384" />
      <use
         transform="translate(78.795289,-12.162674)"
         height="100%"
         width="100%"
         y="0"
         x="0"
         xlink:href="#rect6408"
         inkscape:spray-origin="#rect6408"
         id="use7386" />
      <use
         transform="translate(70.128268,-15.577056)"
         height="100%"
         width="100%"
         y="0"
         x="0"
         xlink:href="#rect6408"
         inkscape:spray-origin="#rect6408"
         id="use7388" />
      <use
         transform="translate(77.641972,-10.885243)"
         height="100%"
         width="100%"
         y="0"
         x="0"
         xlink:href="#rect6408"
         inkscape:spray-origin="#rect6408"
         id="use7390" />
      <use
         transform="translate(69.12298,-6.307814)"
         height="100%"
         width="100%"
         y="0"
         x="0"
         xlink:href="#rect6408"
         inkscape:spray-origin="#rect6408"
         id="use7392" />
      <use
         transform="translate(62.200038,-11.065675)"
         height="100%"
         width="100%"
         y="0"
         x="0"
         xlink:href="#rect6408"
         inkscape:spray-origin="#rect6408"
         id="use7394" />
      <use
         transform="translate(66.79597,-12.693131)"
         height="100%"
         width="100%"
         y="0"
         x="0"
         xlink:href="#rect6408"
         inkscape:spray-origin="#rect6408"
         id="use7396" />
      <use
         transform="translate(60.82791,-16.917784)"
         height="100%"
         width="100%"
         y="0"
         x="0"
         xlink:href="#rect6408"
         inkscape:spray-origin="#rect6408"
         id="use7398" />
      <use
         transform="translate(64.004803,-8.1397765)"
         height="100%"
         width="100%"
         y="0"
         x="0"
         xlink:href="#rect6408"
         inkscape:spray-origin="#rect6408"
         id="use7400" />
      <use
         transform="translate(66.97939,-2.5773952)"
         height="100%"
         width="100%"
         y="0"
         x="0"
         xlink:href="#rect6408"
         inkscape:spray-origin="#rect6408"
         id="use7402" />
      <use
         transform="translate(65.423808,4.5836844)"
         height="100%"
         width="100%"
         y="0"
         x="0"
         xlink:href="#rect6408"
         inkscape:spray-origin="#rect6408"
         id="use7404" />
      <use
         transform="translate(60.312259,-4.4466054)"
         height="100%"
         width="100%"
         y="0"
         x="0"
         xlink:href="#rect6408"
         inkscape:spray-origin="#rect6408"
         id="use7406" />
      <use
         transform="translate(58.410969,-2.3528786)"
         height="100%"
         width="100%"
         y="0"
         x="0"
         xlink:href="#rect6408"
         inkscape:spray-origin="#rect6408"
         id="use7408" />
      <use
         transform="translate(61.572402,-1.3886012)"
         height="100%"
         width="100%"
         y="0"
         x="0"
         xlink:href="#rect6408"
         inkscape:spray-origin="#rect6408"
         id="use7410" />
      <use
         transform="translate(53.741288,-2.2374757)"
         height="100%"
         width="100%"
         y="0"
         x="0"
         xlink:href="#rect6408"
         inkscape:spray-origin="#rect6408"
         id="use7412" />
      <use
         transform="translate(52.030201,2.4361624)"
         height="100%"
         width="100%"
         y="0"
         x="0"
         xlink:href="#rect6408"
         inkscape:spray-origin="#rect6408"
         id="use7414" />
      <use
         transform="translate(46.595457,-4.3248293)"
         height="100%"
         width="100%"
         y="0"
         x="0"
         xlink:href="#rect6408"
         inkscape:spray-origin="#rect6408"
         id="use7416" />
      <use
         transform="translate(53.336258,-5.2355147)"
         height="100%"
         width="100%"
         y="0"
         x="0"
         xlink:href="#rect6408"
         inkscape:spray-origin="#rect6408"
         id="use7418" />
      <use
         transform="translate(56.00352,-10.477759)"
         height="100%"
         width="100%"
         y="0"
         x="0"
         xlink:href="#rect6408"
         inkscape:spray-origin="#rect6408"
         id="use7420" />
      <use
         transform="translate(47.691687,-1.5794791)"
         height="100%"
         width="100%"
         y="0"
         x="0"
         xlink:href="#rect6408"
         inkscape:spray-origin="#rect6408"
         id="use7422" />
      <use
         transform="translate(49.479664,-14.134325)"
         height="100%"
         width="100%"
         y="0"
         x="0"
         xlink:href="#rect6408"
         inkscape:spray-origin="#rect6408"
         id="use7424" />
      <use
         transform="translate(41.023456,-16.819899)"
         height="100%"
         width="100%"
         y="0"
         x="0"
         xlink:href="#rect6408"
         inkscape:spray-origin="#rect6408"
         id="use7426" />
      <use
         transform="translate(37.538538,-16.851117)"
         height="100%"
         width="100%"
         y="0"
         x="0"
         xlink:href="#rect6408"
         inkscape:spray-origin="#rect6408"
         id="use7428" />
      <use
         transform="translate(29.773807,-14.421486)"
         height="100%"
         width="100%"
         y="0"
         x="0"
         xlink:href="#rect6408"
         inkscape:spray-origin="#rect6408"
         id="use7430" />
      <use
         transform="translate(33.822394,-18.672499)"
         height="100%"
         width="100%"
         y="0"
         x="0"
         xlink:href="#rect6408"
         inkscape:spray-origin="#rect6408"
         id="use7432" />
      <use
         transform="translate(43.555903,-17.836676)"
         height="100%"
         width="100%"
         y="0"
         x="0"
         xlink:href="#rect6408"
         inkscape:spray-origin="#rect6408"
         id="use7434" />
      <use
         transform="translate(34.328671,-22.355775)"
         height="100%"
         width="100%"
         y="0"
         x="0"
         xlink:href="#rect6408"
         inkscape:spray-origin="#rect6408"
         id="use7436" />
      <use
         transform="translate(31.615079,-10.400589)"
         height="100%"
         width="100%"
         y="0"
         x="0"
         xlink:href="#rect6408"
         inkscape:spray-origin="#rect6408"
         id="use7438" />
      <use
         transform="translate(29.914468,-6.6227643)"
         height="100%"
         width="100%"
         y="0"
         x="0"
         xlink:href="#rect6408"
         inkscape:spray-origin="#rect6408"
         id="use7440" />
      <use
         transform="translate(20.723639,-14.190412)"
         height="100%"
         width="100%"
         y="0"
         x="0"
         xlink:href="#rect6408"
         inkscape:spray-origin="#rect6408"
         id="use7442" />
      <use
         transform="translate(24.979333,1.6044428)"
         height="100%"
         width="100%"
         y="0"
         x="0"
         xlink:href="#rect6408"
         inkscape:spray-origin="#rect6408"
         id="use7444" />
      <use
         transform="translate(15.443162,3.5748901)"
         height="100%"
         width="100%"
         y="0"
         x="0"
         xlink:href="#rect6408"
         inkscape:spray-origin="#rect6408"
         id="use7446" />
      <use
         transform="translate(9.0474741,-4.1078511)"
         height="100%"
         width="100%"
         y="0"
         x="0"
         xlink:href="#rect6408"
         inkscape:spray-origin="#rect6408"
         id="use7448" />
      <use
         transform="translate(7.5448678,0.73103002)"
         height="100%"
         width="100%"
         y="0"
         x="0"
         xlink:href="#rect6408"
         inkscape:spray-origin="#rect6408"
         id="use7450" />
      <use
         transform="translate(15.628203,10.976736)"
         height="100%"
         width="100%"
         y="0"
         x="0"
         xlink:href="#rect6408"
         inkscape:spray-origin="#rect6408"
         id="use7452" />
      <use
         transform="translate(18.346145,3.0506195)"
         height="100%"
         width="100%"
         y="0"
         x="0"
         xlink:href="#rect6408"
         inkscape:spray-origin="#rect6408"
         id="use7454" />
      <use
         transform="translate(11.438378,6.4685298)"
         height="100%"
         width="100%"
         y="0"
         x="0"
         xlink:href="#rect6408"
         inkscape:spray-origin="#rect6408"
         id="use7456" />
      <use
         transform="translate(3.405837,10.677852)"
         height="100%"
         width="100%"
         y="0"
         x="0"
         xlink:href="#rect6408"
         inkscape:spray-origin="#rect6408"
         id="use7458" />
      <use
         transform="translate(5.0513178,8.7954678)"
         height="100%"
         width="100%"
         y="0"
         x="0"
         xlink:href="#rect6408"
         inkscape:spray-origin="#rect6408"
         id="use7460" />
      <use
         transform="translate(2.3584907,6.6345711)"
         height="100%"
         width="100%"
         y="0"
         x="0"
         xlink:href="#rect6408"
         inkscape:spray-origin="#rect6408"
         id="use7462" />
      <use
         transform="translate(14.985891,1.2875841)"
         height="100%"
         width="100%"
         y="0"
         x="0"
         xlink:href="#rect6408"
         inkscape:spray-origin="#rect6408"
         id="use7464" />
      <use
         transform="translate(12.247661,6.2109139)"
         height="100%"
         width="100%"
         y="0"
         x="0"
         xlink:href="#rect6408"
         inkscape:spray-origin="#rect6408"
         id="use7466" />
      <use
         transform="translate(-1.014566,7.8829591)"
         height="100%"
         width="100%"
         y="0"
         x="0"
         xlink:href="#rect6408"
         inkscape:spray-origin="#rect6408"
         id="use7468" />
      <use
         transform="translate(7.9248898,9.9084055)"
         height="100%"
         width="100%"
         y="0"
         x="0"
         xlink:href="#rect6408"
         inkscape:spray-origin="#rect6408"
         id="use7470" />
      <use
         transform="translate(1.9256778,6.8096846)"
         height="100%"
         width="100%"
         y="0"
         x="0"
         xlink:href="#rect6408"
         inkscape:spray-origin="#rect6408"
         id="use7472" />
      <use
         transform="translate(7.5614522,11.70234)"
         height="100%"
         width="100%"
         y="0"
         x="0"
         xlink:href="#rect6408"
         inkscape:spray-origin="#rect6408"
         id="use7474" />
      <use
         transform="translate(0.52502944,10.731535)"
         height="100%"
         width="100%"
         y="0"
         x="0"
         xlink:href="#rect6408"
         inkscape:spray-origin="#rect6408"
         id="use7476" />
      <use
         transform="translate(6.4438029,0.67206121)"
         height="100%"
         width="100%"
         y="0"
         x="0"
         xlink:href="#rect6408"
         inkscape:spray-origin="#rect6408"
         id="use7478" />
      <use
         transform="translate(-1.6137063,7.432297)"
         height="100%"
         width="100%"
         y="0"
         x="0"
         xlink:href="#rect6408"
         inkscape:spray-origin="#rect6408"
         id="use7480" />
      <use
         transform="translate(-4.8164115,-3.3567848)"
         height="100%"
         width="100%"
         y="0"
         x="0"
         xlink:href="#rect6408"
         inkscape:spray-origin="#rect6408"
         id="use7482" />
      <use
         transform="translate(8.0472487,-4.5285945)"
         height="100%"
         width="100%"
         y="0"
         x="0"
         xlink:href="#rect6408"
         inkscape:spray-origin="#rect6408"
         id="use7484" />
      <use
         transform="translate(-3.4161426,-0.96732927)"
         height="100%"
         width="100%"
         y="0"
         x="0"
         xlink:href="#rect6408"
         inkscape:spray-origin="#rect6408"
         id="use7486" />
      <use
         transform="translate(-7.0501707,1.2747058)"
         height="100%"
         width="100%"
         y="0"
         x="0"
         xlink:href="#rect6408"
         inkscape:spray-origin="#rect6408"
         id="use7488" />
      <use
         transform="translate(-5.465108,-10.337532)"
         height="100%"
         width="100%"
         y="0"
         x="0"
         xlink:href="#rect6408"
         inkscape:spray-origin="#rect6408"
         id="use7490" />
      <use
         transform="translate(-15.239355,-1.2689697)"
         height="100%"
         width="100%"
         y="0"
         x="0"
         xlink:href="#rect6408"
         inkscape:spray-origin="#rect6408"
         id="use7492" />
      <use
         transform="translate(-12.212289,-6.8801496)"
         height="100%"
         width="100%"
         y="0"
         x="0"
         xlink:href="#rect6408"
         inkscape:spray-origin="#rect6408"
         id="use7494" />
      <use
         transform="translate(-16.584771,-11.066881)"
         height="100%"
         width="100%"
         y="0"
         x="0"
         xlink:href="#rect6408"
         inkscape:spray-origin="#rect6408"
         id="use7496" />
      <use
         transform="translate(-23.932034,-7.24493)"
         height="100%"
         width="100%"
         y="0"
         x="0"
         xlink:href="#rect6408"
         inkscape:spray-origin="#rect6408"
         id="use7498" />
      <use
         transform="translate(-18.806644,-8.3469947)"
         height="100%"
         width="100%"
         y="0"
         x="0"
         xlink:href="#rect6408"
         inkscape:spray-origin="#rect6408"
         id="use7500" />
      <use
         transform="translate(-17.76531,3.3624891)"
         height="100%"
         width="100%"
         y="0"
         x="0"
         xlink:href="#rect6408"
         inkscape:spray-origin="#rect6408"
         id="use7502" />
      <use
         transform="translate(-16.221623,-7.2325625)"
         height="100%"
         width="100%"
         y="0"
         x="0"
         xlink:href="#rect6408"
         inkscape:spray-origin="#rect6408"
         id="use7504" />
      <use
         transform="translate(-13.153504,-6.7578694)"
         height="100%"
         width="100%"
         y="0"
         x="0"
         xlink:href="#rect6408"
         inkscape:spray-origin="#rect6408"
         id="use7506" />
      <use
         transform="translate(-20.845457,-2.0519767)"
         height="100%"
         width="100%"
         y="0"
         x="0"
         xlink:href="#rect6408"
         inkscape:spray-origin="#rect6408"
         id="use7508" />
      <use
         transform="translate(-16.474581,-1.678662)"
         height="100%"
         width="100%"
         y="0"
         x="0"
         xlink:href="#rect6408"
         inkscape:spray-origin="#rect6408"
         id="use7510" />
      <use
         transform="translate(-19.317482,4.1553562)"
         height="100%"
         width="100%"
         y="0"
         x="0"
         xlink:href="#rect6408"
         inkscape:spray-origin="#rect6408"
         id="use7512" />
      <use
         transform="translate(-14.453423,7.2804033)"
         height="100%"
         width="100%"
         y="0"
         x="0"
         xlink:href="#rect6408"
         inkscape:spray-origin="#rect6408"
         id="use7514" />
      <use
         transform="translate(-9.0647171,5.9326169)"
         height="100%"
         width="100%"
         y="0"
         x="0"
         xlink:href="#rect6408"
         inkscape:spray-origin="#rect6408"
         id="use7516" />
      <use
         transform="translate(-3.507252,5.9786234)"
         height="100%"
         width="100%"
         y="0"
         x="0"
         xlink:href="#rect6408"
         inkscape:spray-origin="#rect6408"
         id="use7518" />
      <use
         transform="translate(-3.7513037,5.8142791)"
         height="100%"
         width="100%"
         y="0"
         x="0"
         xlink:href="#rect6408"
         inkscape:spray-origin="#rect6408"
         id="use7520" />
      <use
         transform="translate(1.847131,4.1815711)"
         height="100%"
         width="100%"
         y="0"
         x="0"
         xlink:href="#rect6408"
         inkscape:spray-origin="#rect6408"
         id="use7522" />
      <use
         transform="translate(5.0771671,-2.7636992)"
         height="100%"
         width="100%"
         y="0"
         x="0"
         xlink:href="#rect6408"
         inkscape:spray-origin="#rect6408"
         id="use7524" />
      <use
         transform="translate(21.824067,-2.8142192)"
         height="100%"
         width="100%"
         y="0"
         x="0"
         xlink:href="#rect6408"
         inkscape:spray-origin="#rect6408"
         id="use7526" />
      <use
         transform="translate(23.52255,-3.973192)"
         height="100%"
         width="100%"
         y="0"
         x="0"
         xlink:href="#rect6408"
         inkscape:spray-origin="#rect6408"
         id="use7528" />
      <use
         transform="translate(29.073416,5.4938598)"
         height="100%"
         width="100%"
         y="0"
         x="0"
         xlink:href="#rect6408"
         inkscape:spray-origin="#rect6408"
         id="use7530" />
      <use
         transform="translate(25.11342,-6.5686028)"
         height="100%"
         width="100%"
         y="0"
         x="0"
         xlink:href="#rect6408"
         inkscape:spray-origin="#rect6408"
         id="use7532" />
      <use
         transform="translate(29.650751,-2.9725348)"
         height="100%"
         width="100%"
         y="0"
         x="0"
         xlink:href="#rect6408"
         inkscape:spray-origin="#rect6408"
         id="use7534" />
      <use
         transform="translate(42.114199,-9.842302)"
         height="100%"
         width="100%"
         y="0"
         x="0"
         xlink:href="#rect6408"
         inkscape:spray-origin="#rect6408"
         id="use7536" />
      <use
         transform="translate(32.907415,-3.3401563)"
         height="100%"
         width="100%"
         y="0"
         x="0"
         xlink:href="#rect6408"
         inkscape:spray-origin="#rect6408"
         id="use7538" />
      <use
         transform="translate(37.829649,-8.6456611)"
         height="100%"
         width="100%"
         y="0"
         x="0"
         xlink:href="#rect6408"
         inkscape:spray-origin="#rect6408"
         id="use7540" />
      <use
         transform="translate(39.794252,-11.965181)"
         height="100%"
         width="100%"
         y="0"
         x="0"
         xlink:href="#rect6408"
         inkscape:spray-origin="#rect6408"
         id="use7542" />
      <use
         transform="translate(37.260441,-7.4442089)"
         height="100%"
         width="100%"
         y="0"
         x="0"
         xlink:href="#rect6408"
         inkscape:spray-origin="#rect6408"
         id="use7544" />
      <use
         transform="translate(42.600564,-14.357454)"
         height="100%"
         width="100%"
         y="0"
         x="0"
         xlink:href="#rect6408"
         inkscape:spray-origin="#rect6408"
         id="use7546" />
      <use
         transform="translate(42.46781,-17.093778)"
         height="100%"
         width="100%"
         y="0"
         x="0"
         xlink:href="#rect6408"
         inkscape:spray-origin="#rect6408"
         id="use7548" />
      <use
         transform="translate(47.811661,-12.019872)"
         height="100%"
         width="100%"
         y="0"
         x="0"
         xlink:href="#rect6408"
         inkscape:spray-origin="#rect6408"
         id="use7550" />
      <use
         transform="translate(46.944949,-0.07817822)"
         height="100%"
         width="100%"
         y="0"
         x="0"
         xlink:href="#rect6408"
         inkscape:spray-origin="#rect6408"
         id="use7552" />
      <use
         transform="translate(53.570266,4.3078924)"
         height="100%"
         width="100%"
         y="0"
         x="0"
         xlink:href="#rect6408"
         inkscape:spray-origin="#rect6408"
         id="use7554" />
      <use
         transform="translate(50.030279,-0.27458676)"
         height="100%"
         width="100%"
         y="0"
         x="0"
         xlink:href="#rect6408"
         inkscape:spray-origin="#rect6408"
         id="use7556" />
      <use
         transform="translate(56.256511,5.2209357)"
         height="100%"
         width="100%"
         y="0"
         x="0"
         xlink:href="#rect6408"
         inkscape:spray-origin="#rect6408"
         id="use7558" />
      <use
         transform="translate(45.483338,4.6896284)"
         height="100%"
         width="100%"
         y="0"
         x="0"
         xlink:href="#rect6408"
         inkscape:spray-origin="#rect6408"
         id="use7560" />
      <use
         transform="translate(55.38891,-1.8102802)"
         height="100%"
         width="100%"
         y="0"
         x="0"
         xlink:href="#rect6408"
         inkscape:spray-origin="#rect6408"
         id="use7562" />
      <use
         transform="translate(61.21573,7.4627851)"
         height="100%"
         width="100%"
         y="0"
         x="0"
         xlink:href="#rect6408"
         inkscape:spray-origin="#rect6408"
         id="use7564" />
      <use
         transform="translate(55.735931,-1.9029432)"
         height="100%"
         width="100%"
         y="0"
         x="0"
         xlink:href="#rect6408"
         inkscape:spray-origin="#rect6408"
         id="use7566" />
      <use
         transform="translate(56.19475,-0.35449984)"
         height="100%"
         width="100%"
         y="0"
         x="0"
         xlink:href="#rect6408"
         inkscape:spray-origin="#rect6408"
         id="use7568" />
      <use
         transform="translate(50.320065,2.9256768)"
         height="100%"
         width="100%"
         y="0"
         x="0"
         xlink:href="#rect6408"
         inkscape:spray-origin="#rect6408"
         id="use7570" />
      <use
         transform="translate(52.473197,5.2308092)"
         height="100%"
         width="100%"
         y="0"
         x="0"
         xlink:href="#rect6408"
         inkscape:spray-origin="#rect6408"
         id="use7572" />
      <use
         transform="translate(52.691443,-5.279917)"
         height="100%"
         width="100%"
         y="0"
         x="0"
         xlink:href="#rect6408"
         inkscape:spray-origin="#rect6408"
         id="use7574" />
      <use
         transform="translate(56.616432,1.2868382)"
         height="100%"
         width="100%"
         y="0"
         x="0"
         xlink:href="#rect6408"
         inkscape:spray-origin="#rect6408"
         id="use7576" />
      <use
         transform="translate(43.22564,-7.1434129)"
         height="100%"
         width="100%"
         y="0"
         x="0"
         xlink:href="#rect6408"
         inkscape:spray-origin="#rect6408"
         id="use7578" />
      <use
         transform="translate(48.028681,-7.8585167)"
         height="100%"
         width="100%"
         y="0"
         x="0"
         xlink:href="#rect6408"
         inkscape:spray-origin="#rect6408"
         id="use7580" />
      <use
         transform="translate(25.513829,4.247164)"
         height="100%"
         width="100%"
         y="0"
         x="0"
         xlink:href="#rect6408"
         inkscape:spray-origin="#rect6408"
         id="use7582" />
      <use
         transform="translate(25.42858,-8.7964608)"
         height="100%"
         width="100%"
         y="0"
         x="0"
         xlink:href="#rect6408"
         inkscape:spray-origin="#rect6408"
         id="use7584" />
      <use
         transform="translate(23.849734,-3.4545867)"
         height="100%"
         width="100%"
         y="0"
         x="0"
         xlink:href="#rect6408"
         inkscape:spray-origin="#rect6408"
         id="use7586" />
      <use
         transform="translate(8.4683566,0.57946344)"
         height="100%"
         width="100%"
         y="0"
         x="0"
         xlink:href="#rect6408"
         inkscape:spray-origin="#rect6408"
         id="use7588" />
      <use
         transform="translate(3.7375935,7.0776486)"
         height="100%"
         width="100%"
         y="0"
         x="0"
         xlink:href="#rect6408"
         inkscape:spray-origin="#rect6408"
         id="use7590" />
      <use
         transform="translate(2.4457175,6.9777346)"
         height="100%"
         width="100%"
         y="0"
         x="0"
         xlink:href="#rect6408"
         inkscape:spray-origin="#rect6408"
         id="use7592" />
      <use
         transform="translate(6.1703701,14.085332)"
         height="100%"
         width="100%"
         y="0"
         x="0"
         xlink:href="#rect6408"
         inkscape:spray-origin="#rect6408"
         id="use7594" />
      <use
         transform="translate(2.1071851,13.710624)"
         height="100%"
         width="100%"
         y="0"
         x="0"
         xlink:href="#rect6408"
         inkscape:spray-origin="#rect6408"
         id="use7596" />
      <use
         transform="translate(6.1292111,10.831096)"
         height="100%"
         width="100%"
         y="0"
         x="0"
         xlink:href="#rect6408"
         inkscape:spray-origin="#rect6408"
         id="use7598" />
      <use
         transform="translate(9.6731506,11.572365)"
         height="100%"
         width="100%"
         y="0"
         x="0"
         xlink:href="#rect6408"
         inkscape:spray-origin="#rect6408"
         id="use7600" />
      <use
         transform="translate(12.663879,17.367999)"
         height="100%"
         width="100%"
         y="0"
         x="0"
         xlink:href="#rect6408"
         inkscape:spray-origin="#rect6408"
         id="use7602" />
      <use
         transform="translate(3.5691339,2.378943)"
         height="100%"
         width="100%"
         y="0"
         x="0"
         xlink:href="#rect6408"
         inkscape:spray-origin="#rect6408"
         id="use7604" />
      <use
         transform="translate(8.2930852,19.091058)"
         height="100%"
         width="100%"
         y="0"
         x="0"
         xlink:href="#rect6408"
         inkscape:spray-origin="#rect6408"
         id="use7606" />
      <use
         transform="translate(14.881718,17.014742)"
         height="100%"
         width="100%"
         y="0"
         x="0"
         xlink:href="#rect6408"
         inkscape:spray-origin="#rect6408"
         id="use7608" />
      <use
         transform="translate(16.279096,5.470592)"
         height="100%"
         width="100%"
         y="0"
         x="0"
         xlink:href="#rect6408"
         inkscape:spray-origin="#rect6408"
         id="use7610" />
      <use
         transform="translate(36.301722,2.371936)"
         height="100%"
         width="100%"
         y="0"
         x="0"
         xlink:href="#rect6408"
         inkscape:spray-origin="#rect6408"
         id="use7612" />
      <use
         transform="translate(36.575652,0.82704044)"
         height="100%"
         width="100%"
         y="0"
         x="0"
         xlink:href="#rect6408"
         inkscape:spray-origin="#rect6408"
         id="use7614" />
      <use
         transform="translate(38.202531,3.7412173)"
         height="100%"
         width="100%"
         y="0"
         x="0"
         xlink:href="#rect6408"
         inkscape:spray-origin="#rect6408"
         id="use7616" />
      <use
         transform="translate(48.506406,-2.2769226)"
         height="100%"
         width="100%"
         y="0"
         x="0"
         xlink:href="#rect6408"
         inkscape:spray-origin="#rect6408"
         id="use7618" />
      <use
         transform="translate(43.866652,-2.7752698)"
         height="100%"
         width="100%"
         y="0"
         x="0"
         xlink:href="#rect6408"
         inkscape:spray-origin="#rect6408"
         id="use7620" />
      <use
         transform="translate(54.635662,-3.9842971)"
         height="100%"
         width="100%"
         y="0"
         x="0"
         xlink:href="#rect6408"
         inkscape:spray-origin="#rect6408"
         id="use7622" />
      <use
         transform="translate(43.669349,0.0124057)"
         height="100%"
         width="100%"
         y="0"
         x="0"
         xlink:href="#rect6408"
         inkscape:spray-origin="#rect6408"
         id="use7624" />
      <use
         transform="translate(47.790146,-10.564731)"
         height="100%"
         width="100%"
         y="0"
         x="0"
         xlink:href="#rect6408"
         inkscape:spray-origin="#rect6408"
         id="use7626" />
      <use
         transform="translate(59.592155,-5.9029803)"
         height="100%"
         width="100%"
         y="0"
         x="0"
         xlink:href="#rect6408"
         inkscape:spray-origin="#rect6408"
         id="use7628" />
      <use
         transform="translate(53.832889,4.3715151)"
         height="100%"
         width="100%"
         y="0"
         x="0"
         xlink:href="#rect6408"
         inkscape:spray-origin="#rect6408"
         id="use7630" />
      <use
         transform="translate(60.628498,1.7892998)"
         height="100%"
         width="100%"
         y="0"
         x="0"
         xlink:href="#rect6408"
         inkscape:spray-origin="#rect6408"
         id="use7632" />
      <use
         transform="translate(61.06201,0.25446521)"
         height="100%"
         width="100%"
         y="0"
         x="0"
         xlink:href="#rect6408"
         inkscape:spray-origin="#rect6408"
         id="use7634" />
      <use
         transform="translate(55.829986,-9.5152986)"
         height="100%"
         width="100%"
         y="0"
         x="0"
         xlink:href="#rect6408"
         inkscape:spray-origin="#rect6408"
         id="use7636" />
      <use
         transform="translate(55.475659,-7.0841254)"
         height="100%"
         width="100%"
         y="0"
         x="0"
         xlink:href="#rect6408"
         inkscape:spray-origin="#rect6408"
         id="use7638" />
      <use
         transform="translate(58.496784,-3.7197545)"
         height="100%"
         width="100%"
         y="0"
         x="0"
         xlink:href="#rect6408"
         inkscape:spray-origin="#rect6408"
         id="use7640" />
      <use
         transform="translate(53.20195,-9.8574779)"
         height="100%"
         width="100%"
         y="0"
         x="0"
         xlink:href="#rect6408"
         inkscape:spray-origin="#rect6408"
         id="use7642" />
      <use
         transform="translate(53.905493,-8.7106195)"
         height="100%"
         width="100%"
         y="0"
         x="0"
         xlink:href="#rect6408"
         inkscape:spray-origin="#rect6408"
         id="use7644" />
      <use
         transform="translate(71.458372,-10.011956)"
         height="100%"
         width="100%"
         y="0"
         x="0"
         xlink:href="#rect6408"
         inkscape:spray-origin="#rect6408"
         id="use7646" />
      <use
         transform="translate(-28.22373,14.264527)"
         height="100%"
         width="100%"
         y="0"
         x="0"
         xlink:href="#rect6408"
         inkscape:spray-origin="#rect6408"
         id="use7648" />
      <use
         transform="translate(-26.782694,10.089145)"
         height="100%"
         width="100%"
         y="0"
         x="0"
         xlink:href="#rect6408"
         inkscape:spray-origin="#rect6408"
         id="use7650" />
      <use
         transform="translate(-18.03901,2.4749438)"
         height="100%"
         width="100%"
         y="0"
         x="0"
         xlink:href="#rect6408"
         inkscape:spray-origin="#rect6408"
         id="use7652" />
      <use
         transform="translate(-20.406506,9.5898368)"
         height="100%"
         width="100%"
         y="0"
         x="0"
         xlink:href="#rect6408"
         inkscape:spray-origin="#rect6408"
         id="use7654" />
      <use
         transform="translate(-30.198724,-0.51795509)"
         height="100%"
         width="100%"
         y="0"
         x="0"
         xlink:href="#rect6408"
         inkscape:spray-origin="#rect6408"
         id="use7656" />
      <use
         transform="translate(-24.665319,1.5790025)"
         height="100%"
         width="100%"
         y="0"
         x="0"
         xlink:href="#rect6408"
         inkscape:spray-origin="#rect6408"
         id="use7658" />
      <use
         transform="translate(-16.432446,-1.2620389)"
         height="100%"
         width="100%"
         y="0"
         x="0"
         xlink:href="#rect6408"
         inkscape:spray-origin="#rect6408"
         id="use7660" />
      <use
         transform="translate(-20.725109,-8.5772172)"
         height="100%"
         width="100%"
         y="0"
         x="0"
         xlink:href="#rect6408"
         inkscape:spray-origin="#rect6408"
         id="use7662" />
      <use
         transform="translate(98.694191,6.5827509)"
         height="100%"
         width="100%"
         y="0"
         x="0"
         xlink:href="#rect6408"
         inkscape:spray-origin="#rect6408"
         id="use7664" />
      <use
         transform="translate(91.173297,-11.278733)"
         height="100%"
         width="100%"
         y="0"
         x="0"
         xlink:href="#rect6408"
         inkscape:spray-origin="#rect6408"
         id="use7672" />
      <use
         transform="translate(74.228881,-0.96295534)"
         height="100%"
         width="100%"
         y="0"
         x="0"
         xlink:href="#rect6408"
         inkscape:spray-origin="#rect6408"
         id="use7676" />
      <use
         transform="translate(67.243864,-7.2956676)"
         height="100%"
         width="100%"
         y="0"
         x="0"
         xlink:href="#rect6408"
         inkscape:spray-origin="#rect6408"
         id="use7686" />
      <use
         transform="translate(88.884722,-6.029344)"
         height="100%"
         width="100%"
         y="0"
         x="0"
         xlink:href="#rect6408"
         inkscape:spray-origin="#rect6408"
         id="use7690" />
      <use
         transform="translate(70.831439,-9.6138128)"
         height="100%"
         width="100%"
         y="0"
         x="0"
         xlink:href="#rect6408"
         inkscape:spray-origin="#rect6408"
         id="use7692" />
      <use
         transform="translate(96.047546,2.6212895)"
         height="100%"
         width="100%"
         y="0"
         x="0"
         xlink:href="#rect6408"
         inkscape:spray-origin="#rect6408"
         id="use7712" />
      <use
         transform="translate(89.574488,-1.962038)"
         height="100%"
         width="100%"
         y="0"
         x="0"
         xlink:href="#rect6408"
         inkscape:spray-origin="#rect6408"
         id="use7714" />
    </g>
  </g>
</svg>
