<?xml version="1.0" encoding="UTF-8" standalone="no"?>
<!-- Created with Inkscape (http://www.inkscape.org/) -->

<svg
   xmlns:dc="http://purl.org/dc/elements/1.1/"
   xmlns:cc="http://creativecommons.org/ns#"
   xmlns:rdf="http://www.w3.org/1999/02/22-rdf-syntax-ns#"
   xmlns:svg="http://www.w3.org/2000/svg"
   xmlns="http://www.w3.org/2000/svg"
   xmlns:sodipodi="http://sodipodi.sourceforge.net/DTD/sodipodi-0.dtd"
   xmlns:inkscape="http://www.inkscape.org/namespaces/inkscape"
   width="499.99997"
   height="348.70145"
   viewBox="0 0 132.29166 92.260595"
   version="1.1"
   id="svg5052"
   inkscape:version="0.92.3 (unknown)"
   sodipodi:docname="image89.svg">
  <defs
     id="defs5046" />
  <sodipodi:namedview
     id="base"
     pagecolor="#ffffff"
     bordercolor="#666666"
     borderopacity="1.0"
     inkscape:pageopacity="0.0"
     inkscape:pageshadow="2"
     inkscape:zoom="0.49497475"
     inkscape:cx="-386.57634"
     inkscape:cy="65.533454"
     inkscape:document-units="px"
     inkscape:current-layer="layer1"
     showgrid="false"
     units="px"
     inkscape:snap-to-guides="true"
     inkscape:snap-grids="false"
     inkscape:snap-others="false"
     inkscape:object-nodes="false"
     inkscape:snap-nodes="true"
     inkscape:snap-global="true"
     inkscape:window-width="1855"
     inkscape:window-height="1056"
     inkscape:window-x="65"
     inkscape:window-y="24"
     inkscape:window-maximized="1"
     inkscape:snap-bbox="true"
     showguides="true"
     inkscape:guide-bbox="true" />
  <metadata
     id="metadata5049">
    <rdf:RDF>
      <cc:Work
         rdf:about="">
        <dc:format>image/svg+xml</dc:format>
        <dc:type
           rdf:resource="http://purl.org/dc/dcmitype/StillImage" />
        <dc:title />
      </cc:Work>
    </rdf:RDF>
  </metadata>
  <g
     inkscape:label="Layer 1"
     inkscape:groupmode="layer"
     id="layer1"
     transform="translate(-16.536457,-168.18736)">
    <g
       id="g5762"
       transform="matrix(14.974311,0,0,14.974311,-1196.6879,-3078.2992)">
      <path
         d="m 86.788842,218.56835 a 2.3553126,2.3553126 0 0 1 0.854998,2.65362 2.3553126,2.3553126 0 0 1 -2.275833,1.61037 2.3553126,2.3553126 0 0 1 -2.217953,-1.6892 2.3553126,2.3553126 0 0 1 0.947542,-2.622"
         sodipodi:open="true"
         sodipodi:end="4.1217157"
         sodipodi:start="5.3381419"
         sodipodi:ry="2.3553126"
         sodipodi:rx="2.3553126"
         sodipodi:cy="220.47739"
         sodipodi:cx="85.409317"
         sodipodi:type="arc"
         id="path5734"
         style="fill:none;fill-opacity:1;stroke:#000000;stroke-width:0.26458335;stroke-linecap:round;stroke-miterlimit:4;stroke-dasharray:none;stroke-opacity:1" />
      <path
         sodipodi:nodetypes="cccc"
         inkscape:connector-curvature="0"
         id="path5736"
         d="m 86.779078,218.5898 v -1.64538 l -2.706104,-0.008 0.0042,1.65373"
         style="fill:none;stroke:#000000;stroke-width:0.26458335px;stroke-linecap:butt;stroke-linejoin:miter;stroke-opacity:1" />
      <path
         inkscape:connector-curvature="0"
         id="path5738"
         d="m 81.84366,219.51488 0.856353,0.82682 -0.897694,0.77957 v -0.53152 h -0.649648 v -0.53153 h 0.714611 z"
         style="fill:none;stroke:#000000;stroke-width:0.26458335px;stroke-linecap:butt;stroke-linejoin:miter;stroke-opacity:1" />
      <path
         inkscape:connector-curvature="0"
         id="path5738-1"
         d="m 89.031673,219.44128 -0.856353,0.82682 0.897694,0.77957 v -0.53152 h 0.649648 v -0.53153 h -0.714611 z"
         style="fill:none;stroke:#000000;stroke-width:0.26458335px;stroke-linecap:butt;stroke-linejoin:miter;stroke-opacity:1" />
      <path
         sodipodi:nodetypes="caaaaaac"
         inkscape:connector-curvature="0"
         id="path5755"
         d="m 85.4182,218.84644 c 0,0 -0.699976,0.993 -0.835216,1.57021 -0.04448,0.18982 -0.06199,0.40627 0.0167,0.58465 0.09377,0.21257 0.285738,0.39734 0.501131,0.48443 0.185837,0.0751 0.416777,0.0782 0.601356,0 0.228434,-0.0967 0.421449,-0.30595 0.517834,-0.53454 0.07575,-0.17965 0.06165,-0.39494 0.01669,-0.58465 -0.132708,-0.55997 -0.818495,-1.5201 -0.818495,-1.5201 z"
         style="fill:none;stroke:#000000;stroke-width:0.26458335px;stroke-linecap:butt;stroke-linejoin:miter;stroke-opacity:1" />
    </g>
  </g>
</svg>
