<?xml version="1.0" encoding="UTF-8" standalone="no"?>
<!-- Created with Inkscape (http://www.inkscape.org/) -->

<svg
   xmlns:dc="http://purl.org/dc/elements/1.1/"
   xmlns:cc="http://creativecommons.org/ns#"
   xmlns:rdf="http://www.w3.org/1999/02/22-rdf-syntax-ns#"
   xmlns:svg="http://www.w3.org/2000/svg"
   xmlns="http://www.w3.org/2000/svg"
   xmlns:sodipodi="http://sodipodi.sourceforge.net/DTD/sodipodi-0.dtd"
   xmlns:inkscape="http://www.inkscape.org/namespaces/inkscape"
   width="625"
   height="625"
   viewBox="0 0 165.36458 165.36459"
   version="1.1"
   id="svg5052"
   inkscape:version="0.92.1 r15371"
   sodipodi:docname="image118.svg">
  <defs
     id="defs5046" />
  <sodipodi:namedview
     id="base"
     pagecolor="#ffffff"
     bordercolor="#666666"
     borderopacity="1.0"
     inkscape:pageopacity="0.0"
     inkscape:pageshadow="2"
     inkscape:zoom="0.35"
     inkscape:cx="591.05059"
     inkscape:cy="232.36114"
     inkscape:document-units="px"
     inkscape:current-layer="layer1"
     showgrid="false"
     units="px"
     inkscape:snap-to-guides="true"
     inkscape:snap-grids="false"
     inkscape:snap-others="false"
     inkscape:object-nodes="false"
     inkscape:snap-nodes="true"
     inkscape:snap-global="true"
     inkscape:window-width="1366"
     inkscape:window-height="705"
     inkscape:window-x="-8"
     inkscape:window-y="-8"
     inkscape:window-maximized="1"
     inkscape:snap-bbox="true"
     showguides="true"
     inkscape:guide-bbox="true"
     inkscape:snap-bbox-midpoints="true" />
  <metadata
     id="metadata5049">
    <rdf:RDF>
      <cc:Work
         rdf:about="">
        <dc:format>image/svg+xml</dc:format>
        <dc:type
           rdf:resource="http://purl.org/dc/dcmitype/StillImage" />
        <dc:title></dc:title>
      </cc:Work>
    </rdf:RDF>
  </metadata>
  <g
     inkscape:label="Layer 1"
     inkscape:groupmode="layer"
     id="layer1"
     transform="translate(0,-131.63541)">
    <g
       id="g8931"
       transform="translate(1.3379305,0.43158567)">
      <g
         transform="matrix(3.8130739,0,0,3.8130739,-375.11048,-481.02975)"
         id="g8761">
        <g
           id="g8753"
           transform="matrix(0.9483871,0,0,0.9483871,34.530632,9.0099711)">
          <circle
             r="6.5803466"
             cy="174.8192"
             cx="87.265259"
             id="path8747"
             style="fill:none;fill-opacity:1;stroke:#000000;stroke-width:1.48588467;stroke-linecap:round;stroke-miterlimit:4;stroke-dasharray:none;stroke-opacity:1" />
          <circle
             r="0.9514336"
             cy="174.8192"
             cx="87.265259"
             id="path8749"
             style="fill:#000000;fill-opacity:1;stroke:#000000;stroke-width:0.10985625;stroke-linecap:round;stroke-miterlimit:4;stroke-dasharray:none;stroke-opacity:1" />
        </g>
        <path
           sodipodi:type="star"
           style="fill:none;fill-opacity:1;stroke:#000000;stroke-width:3.55311823;stroke-linecap:round;stroke-miterlimit:4;stroke-dasharray:none;stroke-opacity:1"
           id="path8755"
           sodipodi:sides="8"
           sodipodi:cx="117.29188"
           sodipodi:cy="174.80624"
           sodipodi:r1="8.5214424"
           sodipodi:r2="7.6947255"
           sodipodi:arg1="-2.9003173"
           sodipodi:arg2="-2.9017947"
           inkscape:flatsided="false"
           inkscape:rounded="0"
           inkscape:randomized="0"
           d="m 109.01727,172.77012 0.80006,0.20858 3.06327,-5.46325 0.41824,0.71322 6.02916,-1.69704 -0.20858,0.80007 5.46325,3.06327 -0.71322,0.41824 1.69704,6.02916 -0.80006,-0.20858 -3.06328,5.46324 -0.41824,-0.71321 -6.02916,1.69703 0.20858,-0.80006 -5.46324,-3.06327 0.71321,-0.41824 z"
           inkscape:transform-center-x="1.2047356"
           inkscape:transform-center-y="1.6795589" />
      </g>
      <path
         sodipodi:nodetypes="caaaac"
         inkscape:connector-curvature="0"
         id="path8920"
         d="m 127.2203,209.3356 c 0,0 1.71937,15.16729 0,22.45064 -2.01385,8.5308 -6.08314,16.84102 -11.75986,23.51972 -5.12441,6.02889 -12.35799,9.99955 -19.243406,13.89801 -7.08504,4.01148 -14.47506,7.98465 -22.45064,9.6217 -9.42521,1.9346 -28.865113,0 -28.865113,0"
         style="fill:none;stroke:#000000;stroke-width:7.9375;stroke-linecap:butt;stroke-linejoin:miter;stroke-miterlimit:4;stroke-dasharray:none;stroke-opacity:1" />
      <path
         inkscape:connector-curvature="0"
         id="path8922"
         d="m 41.694047,254.23688 v -18.97614 h 12.027131 v 18.70887 h 10.958046 l -16.303437,16.57071 -16.83798,-16.03617 z"
         style="fill:#000000;fill-opacity:1;stroke:#000000;stroke-width:0.26458335px;stroke-linecap:butt;stroke-linejoin:miter;stroke-opacity:1" />
    </g>
  </g>
</svg>
