<?xml version="1.0" encoding="UTF-8" standalone="no"?>
<!-- Created with Inkscape (http://www.inkscape.org/) -->

<svg
   xmlns:dc="http://purl.org/dc/elements/1.1/"
   xmlns:cc="http://creativecommons.org/ns#"
   xmlns:rdf="http://www.w3.org/1999/02/22-rdf-syntax-ns#"
   xmlns:svg="http://www.w3.org/2000/svg"
   xmlns="http://www.w3.org/2000/svg"
   xmlns:sodipodi="http://sodipodi.sourceforge.net/DTD/sodipodi-0.dtd"
   xmlns:inkscape="http://www.inkscape.org/namespaces/inkscape"
   width="625"
   height="625"
   viewBox="0 0 165.36458 165.36459"
   version="1.1"
   id="svg5052"
   inkscape:version="0.92.1 r15371"
   sodipodi:docname="image123.svg">
  <defs
     id="defs5046" />
  <sodipodi:namedview
     id="base"
     pagecolor="#ffffff"
     bordercolor="#666666"
     borderopacity="1.0"
     inkscape:pageopacity="0.0"
     inkscape:pageshadow="2"
     inkscape:zoom="0.35"
     inkscape:cx="173.3135"
     inkscape:cy="377.84972"
     inkscape:document-units="px"
     inkscape:current-layer="layer1"
     showgrid="false"
     units="px"
     inkscape:snap-to-guides="true"
     inkscape:snap-grids="false"
     inkscape:snap-others="false"
     inkscape:object-nodes="false"
     inkscape:snap-nodes="true"
     inkscape:snap-global="true"
     inkscape:window-width="1366"
     inkscape:window-height="705"
     inkscape:window-x="-8"
     inkscape:window-y="-8"
     inkscape:window-maximized="1"
     inkscape:snap-bbox="true"
     showguides="true"
     inkscape:guide-bbox="true"
     inkscape:snap-bbox-midpoints="true" />
  <metadata
     id="metadata5049">
    <rdf:RDF>
      <cc:Work
         rdf:about="">
        <dc:format>image/svg+xml</dc:format>
        <dc:type
           rdf:resource="http://purl.org/dc/dcmitype/StillImage" />
        <dc:title></dc:title>
      </cc:Work>
    </rdf:RDF>
  </metadata>
  <g
     inkscape:label="Layer 1"
     inkscape:groupmode="layer"
     id="layer1"
     transform="translate(0,-131.63541)">
    <g
       id="g4634"
       transform="matrix(1.1199407,1.1199407,-1.1199407,1.1199407,221.99973,-100.67377)">
      <rect
         transform="rotate(45)"
         y="54.511181"
         x="165.42804"
         height="66.901787"
         width="66.901787"
         id="rect4549"
         style="fill:#000000;fill-opacity:1;stroke:#000000;stroke-width:3.96875;stroke-linecap:round;stroke-miterlimit:4;stroke-dasharray:none;stroke-opacity:1" />
      <path
         sodipodi:nodetypes="ccccc"
         inkscape:connector-curvature="0"
         id="rect4572"
         d="m 74.671577,155.41249 7.516982,-0.37798 v 95.96341 l -7.516982,-0.56696 z"
         style="fill:#fffff8;fill-opacity:1;stroke:#000000;stroke-width:0.30712527;stroke-linecap:round;stroke-miterlimit:4;stroke-dasharray:none;stroke-opacity:1" />
      <path
         sodipodi:nodetypes="ccccc"
         inkscape:connector-curvature="0"
         id="rect4572-9"
         d="m 90.241829,164.27365 7.559523,7.55952 v 61.04317 l -7.559523,8.31547 z"
         style="fill:#fffff8;fill-opacity:1;stroke:#000000;stroke-width:0.26458335;stroke-linecap:round;stroke-miterlimit:4;stroke-dasharray:none;stroke-opacity:1" />
      <path
         sodipodi:nodetypes="ccccc"
         inkscape:connector-curvature="0"
         id="rect4572-7"
         d="m 59.058784,171.26621 7.559524,-6.80357 v 76.72917 l -7.559524,-6.42559 z"
         style="fill:#fffff8;fill-opacity:1;stroke:#000000;stroke-width:0.26458335;stroke-linecap:round;stroke-miterlimit:4;stroke-dasharray:none;stroke-opacity:1" />
      <path
         sodipodi:nodetypes="ccccc"
         inkscape:connector-curvature="0"
         id="rect4572-4"
         d="m 105.83334,180.14865 7.55953,7.18155 v 30.80506 l -7.55953,6.80358 z"
         style="fill:#fffff8;fill-opacity:1;stroke:#000000;stroke-width:0.26458335;stroke-linecap:round;stroke-miterlimit:4;stroke-dasharray:none;stroke-opacity:1" />
      <path
         sodipodi:nodetypes="ccccc"
         inkscape:connector-curvature="0"
         id="rect4572-99"
         d="m 43.467266,186.00728 7.559523,-6.23661 v 45.73513 l -7.559523,-6.61458 z"
         style="fill:#fffff8;fill-opacity:1;stroke:#000000;stroke-width:0.26458335;stroke-linecap:round;stroke-miterlimit:4;stroke-dasharray:none;stroke-opacity:1" />
      <rect
         transform="rotate(45)"
         y="52.480164"
         x="163.39702"
         height="70.963821"
         width="70.963821"
         id="rect4549-2"
         style="fill:none;fill-opacity:1;stroke:#000000;stroke-width:4.20971584;stroke-linecap:round;stroke-miterlimit:4;stroke-dasharray:none;stroke-opacity:1" />
    </g>
  </g>
</svg>
