<?xml version="1.0" encoding="UTF-8" standalone="no"?>
<!-- Created with Inkscape (http://www.inkscape.org/) -->

<svg
   xmlns:dc="http://purl.org/dc/elements/1.1/"
   xmlns:cc="http://creativecommons.org/ns#"
   xmlns:rdf="http://www.w3.org/1999/02/22-rdf-syntax-ns#"
   xmlns:svg="http://www.w3.org/2000/svg"
   xmlns="http://www.w3.org/2000/svg"
   xmlns:sodipodi="http://sodipodi.sourceforge.net/DTD/sodipodi-0.dtd"
   xmlns:inkscape="http://www.inkscape.org/namespaces/inkscape"
   width="500"
   height="535.2041"
   viewBox="0 0 132.29166 141.60609"
   version="1.1"
   id="svg5052"
   inkscape:version="0.92.3 (unknown)"
   sodipodi:docname="image125.svg">
  <defs
     id="defs5046" />
  <sodipodi:namedview
     id="base"
     pagecolor="#ffffff"
     bordercolor="#666666"
     borderopacity="1.0"
     inkscape:pageopacity="0.0"
     inkscape:pageshadow="2"
     inkscape:zoom="0.49497474"
     inkscape:cx="-261.06038"
     inkscape:cy="258.35013"
     inkscape:document-units="px"
     inkscape:current-layer="layer1"
     showgrid="false"
     units="px"
     inkscape:snap-to-guides="true"
     inkscape:snap-grids="false"
     inkscape:snap-others="false"
     inkscape:object-nodes="false"
     inkscape:snap-nodes="true"
     inkscape:snap-global="true"
     inkscape:window-width="1855"
     inkscape:window-height="1056"
     inkscape:window-x="65"
     inkscape:window-y="24"
     inkscape:window-maximized="1"
     inkscape:snap-bbox="true"
     showguides="true"
     inkscape:guide-bbox="true"
     inkscape:snap-bbox-midpoints="true" />
  <metadata
     id="metadata5049">
    <rdf:RDF>
      <cc:Work
         rdf:about="">
        <dc:format>image/svg+xml</dc:format>
        <dc:type
           rdf:resource="http://purl.org/dc/dcmitype/StillImage" />
        <dc:title />
      </cc:Work>
    </rdf:RDF>
  </metadata>
  <g
     inkscape:label="Layer 1"
     inkscape:groupmode="layer"
     id="layer1"
     transform="translate(-16.536457,-143.51466)">
    <g
       id="g4746"
       transform="matrix(1.3596651,0,0,1.3596651,-37.752664,-81.250561)">
      <path
         inkscape:connector-curvature="0"
         id="path4691"
         d="M 39.928304,247.25544 H 137.22555"
         style="fill:none;stroke:#000000;stroke-width:6.84445;stroke-linecap:butt;stroke-linejoin:miter;stroke-miterlimit:4;stroke-dasharray:none;stroke-opacity:1" />
      <path
         inkscape:connector-curvature="0"
         id="path4693"
         d="M 41.694048,208.26651 H 135.77293"
         style="fill:none;stroke:#000000;stroke-width:3.70416665;stroke-linecap:butt;stroke-linejoin:miter;stroke-miterlimit:4;stroke-dasharray:none;stroke-opacity:1" />
      <path
         sodipodi:nodetypes="cacacacac"
         inkscape:connector-curvature="0"
         id="path4695"
         d="m 42.228586,246.75332 c 0,0 3.608895,-23.22761 12.294399,-22.98518 8.446637,0.23577 10.690781,22.98518 10.690781,22.98518 0,0 3.200078,19.55086 10.690784,19.77795 7.75902,0.23523 12.294396,-19.77795 12.294396,-19.77795 0,0 2.241703,-22.86564 10.690784,-22.98518 8.7644,-0.124 11.75986,23.51972 11.75986,23.51972 0,0 2.59355,19.97949 10.15624,20.31249 8.15149,0.35893 12.82894,-20.84703 12.82894,-20.84703"
         style="fill:none;stroke:#000000;stroke-width:3.70416665;stroke-linecap:butt;stroke-linejoin:miter;stroke-miterlimit:4;stroke-dasharray:none;stroke-opacity:1" />
      <g
         transform="translate(-21.381563,7.0826427)"
         id="g4734">
        <g
           id="g4705"
           transform="translate(20.713389,-7.5358899)">
          <path
             sodipodi:nodetypes="ccccc"
             inkscape:connector-curvature="0"
             id="rect4697"
             d="m 77.019485,165.89479 h 6.972625 v 13.5766 l -6.972625,-4.44122 z"
             style="fill:#000000;fill-opacity:1;stroke:#000000;stroke-width:0.26458335;stroke-linecap:round;stroke-miterlimit:4;stroke-dasharray:none;stroke-opacity:1" />
          <path
             sodipodi:nodetypes="ccccccc"
             inkscape:connector-curvature="0"
             id="rect4699"
             d="m 69.925598,181.33928 5.149926,0.0236 9.21317,8.81155 v 10.34709 h -4.535715 l -9.827381,-9.5439 z"
             style="fill:#000000;fill-opacity:1;stroke:#000000;stroke-width:0.26458335;stroke-linecap:round;stroke-miterlimit:4;stroke-dasharray:none;stroke-opacity:1" />
        </g>
        <g
           transform="matrix(-1,0,0,1,194.03757,-7.5358899)"
           id="g4705-7">
          <path
             sodipodi:nodetypes="ccccc"
             inkscape:connector-curvature="0"
             id="rect4697-3"
             d="m 77.019485,165.89479 h 6.972625 v 13.5766 l -6.972625,-4.44122 z"
             style="fill:#000000;fill-opacity:1;stroke:#000000;stroke-width:0.26458335;stroke-linecap:round;stroke-miterlimit:4;stroke-dasharray:none;stroke-opacity:1" />
          <path
             sodipodi:nodetypes="ccccccc"
             inkscape:connector-curvature="0"
             id="rect4699-5"
             d="m 69.925598,181.33928 5.149926,0.0236 9.21317,8.81155 v 10.34709 h -4.535715 l -9.827381,-9.5439 z"
             style="fill:#000000;fill-opacity:1;stroke:#000000;stroke-width:0.26458335;stroke-linecap:round;stroke-miterlimit:4;stroke-dasharray:none;stroke-opacity:1" />
        </g>
      </g>
    </g>
  </g>
</svg>
